{
    "_id": "ZUCGvc2dTJUlM9dC",
    "data": {
        "attributes": {
            "ac": {
                "value": 10
            },
            "hardness": 0,
            "hasHealth": false,
            "hp": {
                "details": "",
                "max": 0,
                "temp": 0,
                "tempmax": 0,
                "value": 0
            },
            "stealth": {
                "details": "(master)",
                "value": 32
            }
        },
        "creatureType": "",
        "details": {
            "description": "An eerie orchestra compels all who hear it to dance until they collapse from exhaustion.",
            "disable": "DC 42 Intimidation (expert) three times to frighten dancers and spectral musicians alike away from participating in the deadly performance, DC 40 Performance (master) twice to produce a tune discordant enough to disrupt the compulsion, or DC 42 Religion (master) three times to banish the spirits with prayers",
            "isComplex": true,
            "level": {
                "value": 16
            },
            "reset": "The eerie orchestra spends an hour retuning its phantasmal instruments, after which it is ready to begin its routine again.",
            "routine": "(1 action, auditory, enchantment, incapacitation, occult) The orchestra performs a raucous tune, compelling all creatures that can hear it to spend actions dancing. Each round, creature must attempt a DC 37 Will save; the results of this save modify the number of actions that the creature must spend dancing each round. If this would cause the creature to spend more actions dancing than it can use on its turn, the creature takes 10d6 damage (or double that on a critical failure) from moving faster than its body can manage.</p>\n<p><b>Critical Success</b> The creature decreases the number of actions it must spend dancing by 1.</p>\n<p><b>Success</b> No effect.</p>\n<p><b>Failure</b> The creature increases the actions it must spend dancing by 1.</p>\n<p><b>Critical Failure</b> The creature increases the actions it must spend dancing by 2."
        },
        "saves": {
            "fortitude": {
                "saveDetail": "",
                "value": 0
            },
            "reflex": {
                "saveDetail": "",
                "value": 0
            },
            "will": {
                "saveDetail": "",
                "value": 0
            }
        },
        "source": {
            "value": "Pathfinder Gamemastery Guide"
        },
        "statusEffects": [],
        "traits": {
            "ci": [],
            "di": {
                "custom": "",
                "selected": {},
                "value": []
            },
            "dr": [],
            "dv": [],
            "rarity": {
                "value": "common"
            },
            "size": {
                "value": "med"
            },
            "traits": {
                "custom": "",
                "value": [
                    "haunt"
                ]
            }
        }
    },
    "effects": [],
    "flags": {},
    "img": "systems/pf2e/icons/default-icons/hazard.svg",
    "items": [
        {
            "_id": "Bov9feGVYpn5nmUl",
            "data": {
                "actionCategory": {
                    "value": ""
                },
                "actionType": {
                    "value": "reaction"
                },
                "actions": {
                    "value": null
                },
                "description": {
                    "value": "<p><strong>Trigger</strong> A creature approaches within 30 feet of the orchestra;</p>\n<p><strong>Effect</strong> The orchestra compels all creatures that can hear it to begin dancing. Each creature must attempt a <span data-pf2-check=\"will\" data-pf2-dc=\"41\" data-pf2-traits=\"auditory,enchantment,incapacitation,occult\" data-pf2-label=\"Prelude DC\" data-pf2-show-dc=\"gm\">Will</span> save, with the following effects.</p>\n<hr />\n<p><strong>Critical Success</strong> The creature is unaffected.</p>\n<p><strong>Success</strong> The creature is flat-footed and cannot use reactions. Additionally, it must spend 1 of its actions each round dancing. Dancing is a move action that allows the creature to Stride up to half its Speed.</p>\n<p><strong>Failure</strong> As success, except the creature must spend 2 of its actions each round dancing.</p>\n<p><strong>Critical Failure</strong> As failure, except the creature must spend 3 of its actions each round dancing.</p>"
                },
                "requirements": {
                    "value": ""
                },
                "rules": [],
                "slug": null,
                "source": {
                    "value": ""
                },
                "traits": {
                    "custom": "",
                    "rarity": {
                        "value": "common"
                    },
                    "value": [
                        "auditory",
                        "enchantment",
                        "incapacitation",
                        "occult"
                    ]
                },
                "trigger": {
                    "value": ""
                },
                "weapon": {
                    "value": ""
                }
            },
            "effects": [],
            "flags": {},
            "img": "systems/pf2e/icons/actions/Reaction.webp",
            "name": "Prelude",
            "sort": 100000,
            "type": "action"
        }
    ],
    "name": "Dance Of Death",
    "token": {
        "disposition": 0,
        "height": 1,
        "img": "systems/pf2e/icons/default-icons/hazard.svg",
        "name": "Dance Of Death",
        "width": 1
    },
    "type": "hazard"
}
