{
    "_id": "d3YklujLpBFC5HfB",
    "data": {
        "attributes": {
            "ac": {
                "value": 0
            },
            "hardness": 0,
            "hasHealth": false,
            "hp": {
                "details": "",
                "max": 0,
                "temp": 0,
                "tempmax": 0,
                "value": 0
            },
            "stealth": {
                "details": "(expert)",
                "value": 10
            }
        },
        "creatureType": "",
        "details": {
            "description": "<p>A choir of lost souls rises out of the floor, singing an eerie chant that terrifies its listeners and buffets their bodies with walls of sound.</p>",
            "disable": "<p><span data-pf2-check=\"performance\" data-pf2-traits=\"haunt\" data-pf2-label=\"Sing a Different Tune DC\" data-pf2-dc=\"28\" data-pf2-show-dc=\"gm\">Performance</span> (trained) to disrupt the song's resonance with another tune or <span data-pf2-check=\"religion\" data-pf2-traits=\"haunt\" data-pf2-label=\"Ritually Silence the Haunt DC\" data-pf2-dc=\"28\" data-pf2-show-dc=\"gm\">Religion</span> (trained) to ritually silence the spirits</p>",
            "isComplex": false,
            "level": {
                "value": 6
            },
            "reset": "",
            "routine": ""
        },
        "saves": {
            "fortitude": {
                "saveDetail": "",
                "value": 0
            },
            "reflex": {
                "saveDetail": "",
                "value": 0
            },
            "will": {
                "saveDetail": "",
                "value": 0
            }
        },
        "source": {
            "value": "Pathfinder Gamemastery Guide"
        },
        "statusEffects": [],
        "traits": {
            "ci": [],
            "di": {
                "custom": "",
                "selected": {},
                "value": []
            },
            "dr": [],
            "dv": [],
            "rarity": {
                "value": "common"
            },
            "size": {
                "value": "med"
            },
            "traits": {
                "custom": "",
                "value": [
                    "haunt"
                ]
            }
        }
    },
    "effects": [],
    "flags": {},
    "img": "systems/pf2e/icons/default-icons/hazard.svg",
    "items": [
        {
            "_id": "oZGdTS4jvoAj1myH",
            "data": {
                "actionCategory": {
                    "value": "offensive"
                },
                "actionType": {
                    "value": "reaction"
                },
                "actions": {
                    "value": null
                },
                "description": {
                    "value": "<p data-visibility=\"gm\"><strong>Trigger</strong> A creature moves within 10 feet of the section of floor from which the choir can arise.</p>\n<p><strong>Effect</strong> The choir rises, and its song deals [[/r 4d8+18 #mental]]{4d8+18 mental damage} to non-evil creatures within 30 feet of the souls' spectral forms. Affected creatures must each attempt a <span data-pf2-check=\"will\" data-pf2-dc=\"24\" data-pf2-traits=\"auditory,damaging-effect,emotion,enchantment,fear,mental,occult\" data-pf2-label=\"Profane Chant DC\" data-pf2-show-dc=\"gm\">Will</span> save.</p>\n<div data-visibility=\"gm\"><hr />\n<p><strong>Critical Success</strong> The creature is unaffected.</p>\n<p><strong>Success</strong> The creature takes half damage and becomes @Compendium[pf2e.conditionitems.Frightened]{Frightened 1}.</p>\n<p><strong>Failure</strong> The creature takes full damage and becomes @Compendium[pf2e.conditionitems.Frightened]{Frightened 2}.</p>\n<p><strong>Critical Failure</strong> The creature takes double damage. It also becomes @Compendium[pf2e.conditionitems.Frightened]{Frightened 3} and @Compendium[pf2e.conditionitems.Fleeing]{Fleeing} for 1 round.</p>\n</div>"
                },
                "requirements": {
                    "value": ""
                },
                "rules": [],
                "slug": null,
                "source": {
                    "value": ""
                },
                "traits": {
                    "custom": "",
                    "rarity": {
                        "value": "common"
                    },
                    "value": [
                        "auditory",
                        "emotion",
                        "enchantment",
                        "fear",
                        "mental",
                        "occult"
                    ]
                },
                "trigger": {
                    "value": ""
                },
                "weapon": {
                    "value": ""
                }
            },
            "effects": [],
            "flags": {},
            "img": "systems/pf2e/icons/actions/Reaction.webp",
            "name": "Profane Chant",
            "sort": 100000,
            "type": "action"
        }
    ],
    "name": "Ghostly Choir",
    "token": {
        "disposition": 0,
        "height": 1,
        "img": "systems/pf2e/icons/default-icons/hazard.svg",
        "name": "Ghostly Choir",
        "width": 1
    },
    "type": "hazard"
}
