{
    "_id": "DeixUOfwL7Bruad5",
    "content": "<h1>Red Mantis Assassin</h1>\n<p>You are a Red Mantis assassin, inducted by the mantis god and sworn to chase your prey to the end of the world and beyond.</p>\n<h2>@Compendium[pf2e.feats-srd.Red Mantis Assassin Dedication]{Red Mantis Assassin Dedication} Feat 2</h2>\n<p><strong>Prerequisites</strong> trained in sawtooth sabers, deity is Achaekek, lawful evil alignment, member of the Red Mantis assassins</p>\n<p><strong>Access</strong> You are from Mediogalti Island.</p>\n<hr />\n<p>You have learned how to stalk your foes and slay them with a sawtooth sabre. You become trained in Stealth and Assassin Lore; if you were already trained, you become an expert instead. Whenever your proficiency in any weapon increases to expert or beyond, you also gain that new proficiency with @Compendium[pf2e.equipment-srd.Sawtooth Saber]{Sawtooth Saber}.</p>\n<p><strong>Special</strong> You cannot select another dedication feat until you have gained two other feats from the Red Mantis assassin archetype.</p>\n<h2>@Compendium[pf2e.feats-srd.Basic Red Mantis Magic]{Basic Red Mantis Magic} Feat 4</h2>\n<p><strong>Prerequisites</strong> trained in Religion, Red Mantis Assassin Dedication</p>\n<hr />\n<p>You have learned limited divine magic from your Red Mantis training. You gain the Cast a Spell activity. You're a prepared spellcaster, able to prepare two cantrips and one 1st-level spell each day. You prepare these spells from a Red Mantis assassin spellbook, similar to a wizard's, containing three cantrips and two 1st-level spells. All the spells in your Red Mantis assassin spellbook, from this and later feats, must be either transmutation or illusion spells from the arcane spell list or a spell from the following list: @Compendium[pf2e.spells-srd.Clairaudience]{Clairaudience}, @Compendium[pf2e.spells-srd.Clairvoyance]{Clairvoyance}, @Compendium[pf2e.spells-srd.Darkness]{Darkness}, @Compendium[pf2e.spells-srd.Dimension Door]{Dimension Door}, @Compendium[pf2e.spells-srd.Modify Memory]{Modify Memory}, @Compendium[pf2e.spells-srd.Obscuring Mist]{Obscuring Mist}, @Compendium[pf2e.spells-srd.Paralyze]{Paralyze}, @Compendium[pf2e.spells-srd.See Invisibility]{See Invisibility}, @Compendium[pf2e.spells-srd.True Strike]{True Strike}. Regardless of their usual magical tradition, your Red Mantis assassin spells are divine spells, as are any Red Mantis focus spells you gain.</p>\n<p>You can prepare two cantrips and one 1st-level spell each day from those found in your Red Mantis assassin spellbook. You're trained in spell attack rolls and spell DCs for casting divine spells. Your key spellcasting ability for these spells is Charisma.</p>\n<h2>@Compendium[pf2e.feats-srd.Advanced Red Mantis Magic]{Advanced Red Mantis Magic} Feat 6</h2>\n<p><strong>Prerequisites</strong> Basic Red Mantis Magic</p>\n<hr />\n<p>Your Red Mantis magical training has improved. Add two 2nd-level spells to your Red Mantis assassin spellbook. You gain a 2nd-level spell slot that you can use to prepare a spell from your Red Mantis assassin spellbook.</p>\n<p>At 8th level, add two 3rd-level spells to your Red Mantis assassin spellbook. You gain a 3rd-level spell slot that you can use to prepare a spell from your Red Mantis assassin spellbook.</p>\n<p>At 10th level, add two 4th-level spells to your Red Mantis assassin spellbook. You gain a 4th-level spell slot that you can use to prepare a spell from your Red Mantis assassin spellbook.</p>\n<h2>@Compendium[pf2e.feats-srd.Crimson Shroud]{Crimson Shroud} Feat 6</h2>\n<p><strong>Frequency</strong> A number of times per day equal to your number of class feats from the Red Mantis assassin archetype</p>\n<p><strong>Prerequisites</strong> Red Mantis Assassin Dedication</p>\n<hr />\n<p>You swathe yourself in a veil of red mist for 1 minute. While the shroud is active, you gain fast healing equal to half your level. You can Interact with your shroud, swirling it around you, to gain a +1 circumstance bonus to AC until the beginning of your next turn. Finally, if you die while the shroud is active, you can choose to have your entire body vanish into red mist, leaving behind only your gear; you make this choice when you activate Crimson Shroud.</p>\n<h2>@Compendium[pf2e.feats-srd.Mantis Form]{Mantis Form} Feat 8</h2>\n<p><strong>Prerequisites</strong> Basic Red Mantis Magic</p>\n<hr />\n<p>You gain the @Compendium[pf2e.spells-srd.Mantis Form]{Mantis Form} focus spell. If you don't already have one, you gain a focus pool of 1 Focus Point, which you can Refocus by praying to Achaekek or researching your assigned kill.</p>",
    "flags": {},
    "name": "Red Mantis Assassin",
    "permission": {
        "default": 0
    }
}
