{
    "_id": "Rma6WvkTkRW1H0ro",
    "data": {
        "attributes": {
            "ac": {
                "value": 37
            },
            "hardness": 0,
            "hasHealth": true,
            "hp": {
                "details": "",
                "max": 120,
                "temp": 0,
                "value": 120
            },
            "stealth": {
                "details": "<p>DC 42 (master) to notice massive buds beneath the other foliage before they open</p>",
                "value": 32
            }
        },
        "creatureType": "",
        "details": {
            "description": "<p>Five large flowers in the weed-choked field unfurl, each dusting pollen onto vines that animate into @Compendium[pf2e.pathfinder-bestiary.Wemmuth]{Wemmuths}.</p>",
            "disable": "<p><span data-pf2-check=\"nature\" data-pf2-dc=\"48\" data-pf2-traits=\"environmental\" data-pf2-label=\"Calm a Flower DC\" data-pf2-show-dc=\"gm\">Nature</span> (master) or <span data-pf2-check=\"performance\" data-pf2-dc=\"48\" data-pf2-traits=\"environmental\" data-pf2-label=\"Calm a Flower DC\" data-pf2-show-dc=\"gm\">Performance</span> (legendary) to calm a flower, closing it</p>",
            "isComplex": true,
            "level": {
                "value": 20
            },
            "reset": "<p>Wemmuths collapse into ordinary vines and the trap resets if the area is left alone for 1 minute.</p>",
            "routine": "<p><span class=\"pf2-icon\">2</span></p>\n<p>If there are fewer wemmuths than open flowers, the flowers create more wemmuths (so there as many wemmuths as open flowers) as their first action.</p>\n<p>For their second action, the flowers produce a mindaddling pollen. Each non-plant creature within 30 feet of a flower must succeed at a <span data-pf2-check=\"fortitude\" data-pf2-dc=\"41\" data-pf2-traits=\"emotion,mental,olfactory\" data-pf2-label=\"Mindaddling Pollen DC\" data-pf2-show-dc=\"gm\">Fortitude</span> save or become @Compendium[pf2e.conditionitems.Slowed]{Slowed 1} for 1 round (or @Compendium[pf2e.conditionitems.Confused]{Confused} for 1 round, on a critical failure). The pollen is an emotion, mental, and olfactory effect.</p>"
        },
        "saves": {
            "fortitude": {
                "saveDetail": "",
                "value": 33
            },
            "reflex": {
                "saveDetail": "",
                "value": 30
            },
            "will": {
                "saveDetail": "",
                "value": 30
            }
        },
        "source": {
            "value": "Pathfinder #156: The Apocalypse Prophet"
        },
        "statusEffects": [],
        "traits": {
            "ci": [],
            "di": {
                "custom": "",
                "selected": {},
                "value": []
            },
            "dr": [],
            "dv": [],
            "rarity": {
                "value": "unique"
            },
            "size": {
                "value": "med"
            },
            "traits": {
                "custom": "",
                "value": [
                    "environmental"
                ]
            }
        }
    },
    "effects": [],
    "flags": {},
    "img": "systems/pf2e/icons/default-icons/hazard.svg",
    "items": [
        {
            "_id": "xrgMIiBqzQXebseK",
            "data": {
                "actionCategory": {
                    "value": "offensive"
                },
                "actionType": {
                    "value": "reaction"
                },
                "actions": {
                    "value": null
                },
                "description": {
                    "value": "<p data-visibility=\"gm\"><strong>Trigger</strong> A non-plant creature enters the garden;</p>\n<p><strong>Effect</strong> The blooms open, spawning a single @Compendium[pf2e.pathfinder-bestiary.Wemmuth]{Wemmuth} that acts on the hazard's initiative, and the hazard rolls for initiative.</p>"
                },
                "requirements": {
                    "value": ""
                },
                "rules": [],
                "slug": null,
                "source": {
                    "value": ""
                },
                "traits": {
                    "custom": "",
                    "rarity": {
                        "value": "common"
                    },
                    "value": []
                },
                "trigger": {
                    "value": ""
                }
            },
            "effects": [],
            "flags": {},
            "img": "systems/pf2e/icons/actions/Reaction.webp",
            "name": "Bloom",
            "sort": 0,
            "type": "action"
        }
    ],
    "name": "Angry Vegetation",
    "token": {
        "disposition": 0,
        "height": 1,
        "img": "systems/pf2e/icons/default-icons/hazard.svg",
        "name": "Angry Vegetation",
        "width": 1
    },
    "type": "hazard"
}
