{
    "_id": "4a2sVO0o2mMTydN8",
    "data": {
        "boosts": {
            "0": {
                "value": [
                    "cha",
                    "con"
                ]
            },
            "1": {
                "value": [
                    "cha",
                    "con",
                    "dex",
                    "int",
                    "str",
                    "wis"
                ]
            }
        },
        "description": {
            "value": "<p>You're from Breachill and have lived there most, if not all, of your life. You might be the son or daughter of a well-known local adventuring family, or a family with a storied tradition of military or other martial service. You likely also have some sort of skill with your hands, as the people of Breachill are very self-sufficient.</p>\n<p>The Call for Heroes is one of your hometown's most iconic traditions, and you want to attend so you can prove your own merits to the council-beyond simply those of your family's name.</p>\n<p>Choose two ability boosts. One must be to <strong>Constitution</strong> or <strong>Charisma</strong>, and one is a free ability boost.</p>\n<p>You're trained in the Crafting skill and the Breachill Lore skill. You gain the Specialty Crafting skill feat.</p>\n<hr />\n<ul>\n<li>@Compendium[pf2e.feats-srd.Specialty Crafting (Alchemy)]{Specialty Crafting (Alchemy)}</li>\n<li>@Compendium[pf2e.feats-srd.Specialty Crafting (Artistry)]{Specialty Crafting (Artistry)}</li>\n<li>@Compendium[pf2e.feats-srd.Specialty Crafting (Blacksmithing)]{Specialty Crafting (Blacksmithing)}</li>\n<li>@Compendium[pf2e.feats-srd.Specialty Crafting (Bookmaking)]{Specialty Crafting (Bookmaking)}</li>\n<li>@Compendium[pf2e.feats-srd.Specialty Crafting (Glassmaking)]{Specialty Crafting (Glassmaking)}</li>\n<li>@Compendium[pf2e.feats-srd.Specialty Crafting (Leatherworking)]{Specialty Crafting (Leatherworking)}</li>\n<li>@Compendium[pf2e.feats-srd.Specialty Crafting (Pottery)]{Specialty Crafting (Pottery)}</li>\n<li>@Compendium[pf2e.feats-srd.Specialty Crafting (Shipbuilding)]{Specialty Crafting (Shipbuilding)}</li>\n<li>@Compendium[pf2e.feats-srd.Specialty Crafting (Stonemasonry)]{Specialty Crafting (Stonemasonry)}</li>\n<li>@Compendium[pf2e.feats-srd.Specialty Crafting (Tailoring)]{Specialty Crafting (Tailoring)}</li>\n<li>@Compendium[pf2e.feats-srd.Specialty Crafting (Weaving)]{Specialty Crafting (Weaving)}</li>\n<li>@Compendium[pf2e.feats-srd.Specialty Crafting (Woodworking)]{Specialty Crafting (Woodworking)}</li>\n</ul>"
        },
        "items": {
            "2vn6g": {
                "id": "tbIMWrIRI9P9cubM",
                "img": "systems/pf2e/icons/features/feats/feats.webp",
                "level": 1,
                "name": "Specialty Crafting (Shipbuilding)",
                "pack": "pf2e.feats-srd"
            },
            "4tc2d": {
                "id": "59FN13nU6agKT4oa",
                "img": "systems/pf2e/icons/features/feats/feats.webp",
                "level": 1,
                "name": "Specialty Crafting (Bookmaking)",
                "pack": "pf2e.feats-srd"
            },
            "81dgv": {
                "id": "B06QKNvKYqxYGwPU",
                "img": "systems/pf2e/icons/features/feats/feats.webp",
                "level": 1,
                "name": "Specialty Crafting (Tailoring)",
                "pack": "pf2e.feats-srd"
            },
            "9ckfl": {
                "id": "dTjzxCy9pku5gL0F",
                "img": "systems/pf2e/icons/features/feats/feats.webp",
                "level": 1,
                "name": "Specialty Crafting (Weaving)",
                "pack": "pf2e.feats-srd"
            },
            "aqt4d": {
                "id": "S8mPrjJjuObotmjZ",
                "img": "systems/pf2e/icons/features/feats/feats.webp",
                "level": 1,
                "name": "Specialty Crafting (Blacksmithing)",
                "pack": "pf2e.feats-srd"
            },
            "b6k9p": {
                "id": "8XC2xJ7Y1xlr6Xor",
                "img": "systems/pf2e/icons/features/feats/feats.webp",
                "level": 1,
                "name": "Specialty Crafting (Pottery)",
                "pack": "pf2e.feats-srd"
            },
            "dal9r": {
                "id": "TWkwy0uQvTGlgEFG",
                "img": "systems/pf2e/icons/features/feats/feats.webp",
                "level": 1,
                "name": "Specialty Crafting (Stonemasonry)",
                "pack": "pf2e.feats-srd"
            },
            "hxk86": {
                "id": "22HUfCajd6IkATOR",
                "img": "systems/pf2e/icons/features/feats/feats.webp",
                "level": 1,
                "name": "Specialty Crafting (Artistry)",
                "pack": "pf2e.feats-srd"
            },
            "ljd1z": {
                "id": "WddEyALYHfpeUjZB",
                "img": "systems/pf2e/icons/features/feats/feats.webp",
                "level": 1,
                "name": "Specialty Crafting (Leatherworking)",
                "pack": "pf2e.feats-srd"
            },
            "lm4m0": {
                "id": "YmzLnj4ojlf9INNP",
                "img": "systems/pf2e/icons/features/feats/feats.webp",
                "level": 1,
                "name": "Specialty Crafting (Glassmaking)",
                "pack": "pf2e.feats-srd"
            },
            "p4ues": {
                "id": "YvoiGWZhtbHH6NMF",
                "img": "systems/pf2e/icons/features/feats/feats.webp",
                "level": 1,
                "name": "Specialty Crafting (Woodworking)",
                "pack": "pf2e.feats-srd"
            },
            "vrpjn": {
                "id": "XVnpntqV6w94PoOb",
                "img": "systems/pf2e/icons/features/feats/feats.webp",
                "level": 1,
                "name": "Specialty Crafting (Alchemy)",
                "pack": "pf2e.feats-srd"
            }
        },
        "rules": [],
        "source": {
            "value": "Pathfinder: Age of Ashes Player's Guide"
        },
        "trainedLore": "Breachill Lore",
        "trainedSkills": {
            "value": [
                "cra"
            ]
        },
        "traits": {
            "custom": "",
            "rarity": {
                "value": "common"
            },
            "value": []
        }
    },
    "effects": [],
    "flags": {},
    "img": "systems/pf2e/icons/default-icons/background.svg",
    "name": "Local Scion",
    "type": "background"
}
