{
    "_id": "7ZfWiHqDyb6NllN1",
    "data": {
        "baseItem": null,
        "brokenThreshold": {
            "value": 0
        },
        "bulkCapacity": {
            "value": ""
        },
        "collapsed": {
            "value": false
        },
        "containerId": {
            "value": null
        },
        "description": {
            "value": "<p>This deck of 54 cards appears nearly identical to standard playing cards. Comprised of four thematic suits of 13 cards each, as well as two wildcards, the deck of mischief is a favorite of scoundrels who prefer not to leave their games to chance-or to at least nudge the odds in their favor. If you know how to activate the deck, you can illusorily transform the ace and face cards into other cards in the deck.</p>\n<p>The deck is true to its name and less likely to comply with your wishes if not well cared for. While surprisingly resistant to the elements, a waterlogged, dirty, or battered deck may not function as desired, giving you incorrect information about which cards are still in the deck or failing to hold the illusion at a critical moment. If a deck becomes incomplete due to damaged or missing cards, it rapidly loses its deceptive capabilities and might even purposefully sabotage you.</p>\n<hr />\n<p><strong>Activate</strong> <span class=\"pf2-icon\">1</span> envision, Interact;</p>\n<p><strong>Effect</strong> You learn which of the ace and face cards are still in the deck. You can then swap the apparent face of an ace or face card in your hand (if you have any) with the face of one still in the deck. A creature who Seeks or touches the card can attempt to disbelieve this illusion (Perception DC 20).</p>"
        },
        "equipped": {
            "value": false
        },
        "equippedBulk": {
            "value": ""
        },
        "hardness": {
            "value": 0
        },
        "hp": {
            "value": 0
        },
        "identification": {
            "misidentified": {},
            "status": "identified",
            "unidentified": {
                "data": {
                    "description": {
                        "value": ""
                    }
                },
                "img": "",
                "name": ""
            }
        },
        "invested": {
            "value": null
        },
        "level": {
            "value": 4
        },
        "maxHp": {
            "value": 0
        },
        "negateBulk": {
            "value": "0"
        },
        "preciousMaterial": {
            "value": null
        },
        "preciousMaterialGrade": {
            "value": null
        },
        "price": {
            "value": "75 gp"
        },
        "quantity": {
            "value": 1
        },
        "rules": [],
        "size": {
            "value": "med"
        },
        "source": {
            "value": ""
        },
        "stackGroup": {
            "value": ""
        },
        "traits": {
            "custom": "",
            "rarity": {
                "value": "uncommon"
            },
            "usage": {
                "value": "held-in-two-hands"
            },
            "value": [
                "illusion",
                "magical"
            ]
        },
        "usage": {
            "value": ""
        },
        "weight": {
            "value": "-"
        }
    },
    "effects": [],
    "flags": {},
    "img": "systems/pf2e/icons/default-icons/equipment.svg",
    "name": "Deck of Mischief",
    "type": "equipment"
}
