{
    "_id": "p3RduziOxQxtREg9",
    "data": {
        "activation": {
            "condition": "",
            "cost": 0,
            "type": ""
        },
        "autoDestroy": {
            "_deprecated": true,
            "value": true
        },
        "autoUse": {
            "_deprecated": true,
            "value": true
        },
        "baseItem": null,
        "brokenThreshold": {
            "value": 0
        },
        "bulkCapacity": {
            "value": ""
        },
        "charges": {
            "_deprecated": true,
            "max": "1",
            "value": "1"
        },
        "collapsed": {
            "value": false
        },
        "consumableType": {
            "value": "poison"
        },
        "consume": {
            "_deprecated": true,
            "value": ""
        },
        "containerId": {
            "value": ""
        },
        "description": {
            "value": "<p>Traps may keep many a thief at bay, but the poison known as looter's lethargy ensures that no thieves are strong enough to walk off with pilfered treasures. Commonly smeared on locks, chests, and even valuable items themselves, the poison slowly saps the strength of those who touch it. Nearby guardians can then simply follow the resulting trail of discarded valuables to find the weakened trespasser.</p>\n<hr />\n<p><strong>Activate</strong> <span class=\"pf2-icon\">1</span> Interact (Contact)</p>\n<p><strong>Saving Throw</strong> <span data-pf2-check=\"fortitude\" data-pf2-dc=\"19\" data-pf2-traits=\"alchemical,consumable,contact,poison\" data-pf2-label=\"Looter's Lethargy DC\" data-pf2-show-dc=\"gm\">Fortitude</span></p>\n<p><strong>Onset</strong> 1 minute</p>\n<p><strong>Maximum Duration</strong> 1 hour</p>\n<p><strong>Stage 1</strong> reduce Bulk limit by 3 (1 minute)</p>\n<p><strong>Stage 2</strong> @Compendium[pf2e.conditionitems.Flat-Footed]{Flat-Footed}, reduce Bulk limit by 4 (10 minutes)</p>\n<p><strong>Stage 3</strong> flat-footed, reduce Bulk limit by 5 (10 minutes)</p>"
        },
        "duration": {
            "units": "",
            "value": null
        },
        "equipped": {
            "value": false
        },
        "equippedBulk": {
            "value": ""
        },
        "hardness": {
            "value": 0
        },
        "hp": {
            "value": 0
        },
        "identification": {
            "misidentified": {},
            "status": "identified",
            "unidentified": {
                "data": {
                    "description": {
                        "value": ""
                    }
                },
                "img": "",
                "name": ""
            }
        },
        "level": {
            "value": 2
        },
        "maxHp": {
            "value": 0
        },
        "negateBulk": {
            "value": "0"
        },
        "preciousMaterial": {
            "value": ""
        },
        "preciousMaterialGrade": {
            "value": ""
        },
        "price": {
            "value": "6 gp"
        },
        "quantity": {
            "value": 1
        },
        "range": {
            "long": null,
            "units": "",
            "value": null
        },
        "rules": [],
        "size": {
            "value": "med"
        },
        "source": {
            "value": "Pathfinder #157: Devil at the Dreaming Palace"
        },
        "spell": {
            "data": null,
            "heightenedLevel": null
        },
        "stackGroup": {
            "value": ""
        },
        "target": {
            "type": "",
            "units": "",
            "value": null
        },
        "traits": {
            "custom": "",
            "rarity": {
                "value": "uncommon"
            },
            "usage": {
                "value": "held-in-one-hand"
            },
            "value": [
                "alchemical",
                "consumable",
                "contact",
                "poison"
            ]
        },
        "usage": {
            "value": "held-in-one-hand"
        },
        "uses": {
            "autoDestroy": true,
            "autoUse": true,
            "max": 0,
            "per": null,
            "value": 0
        },
        "weight": {
            "value": "L"
        }
    },
    "effects": [],
    "flags": {},
    "img": "systems/pf2e/icons/equipment/alchemical-items/alchemical-poisons/looters-lethargy.webp",
    "name": "Looter's Lethargy",
    "type": "consumable"
}
