{
    "_id": "I2ul8Bzcth7sleow",
    "data": {
        "baseItem": null,
        "brokenThreshold": {
            "value": 0
        },
        "bulkCapacity": {
            "value": ""
        },
        "collapsed": {
            "value": false
        },
        "containerId": {
            "value": ""
        },
        "description": {
            "value": "<p>This brownish-orange lens always seems dusty and gritty, even when wet. While you have the Ochre Fulcrum Lens invested, lassitude grips you. You gain resistance 10 to mental damage and a +2 status bonus to saves against emotion effects. You can also activate the lens in the following ways.</p>\n<p>@Compendium[pf2e.equipment-effects.Effect: Ochre Fulcrum Lens]{Effect: Ochre Fulcrum Lens}</p>\n<hr />\n<p><strong>Activate</strong> <span class=\"pf2-icon\">2</span> Interact;</p>\n<p><strong>Frequency</strong> once per day;</p>\n<p><strong>Effect</strong> You hold up the Ochre Fulcrum Lens in your hand and the item casts @Compendium[pf2e.spells-srd.Crushing Despair]{Crushing Despair} (<span data-pf2-check=\"will\" data-pf2-dc=\"31\" data-pf2-traits=\"emotion,enchantment,mental,occult\" data-pf2-label=\"Ochre Fulcrum Lens DC\" data-pf2-show-dc=\"gm\">Will</span> save).</p>\n<hr />\n<p><strong>Activate</strong> <span class=\"pf2-icon\">2</span> Interact (attack, possession);</p>\n<p>While grasping the lens, make a melee spell attack roll with a modifier of [[1d20+21]]{+21}. On a hit, you force the splinter of Nhimbaloth's essence from the lens to possess the target. You're no longer invested in the lens, and the target gains the benefits as though it had invested the lens but can't activate the lens's other abilities. This effect is permanent, but it can be ended by any effect that removes a possession effect. The lens doesn't have any magical abilities until the possession effect ends; when it does, the essence returns to the lens.</p>"
        },
        "equipped": {
            "value": false
        },
        "equippedBulk": {
            "value": ""
        },
        "hardness": {
            "value": 0
        },
        "hp": {
            "value": 0
        },
        "identification": {
            "misidentified": {},
            "status": "identified",
            "unidentified": {
                "data": {
                    "description": {
                        "value": ""
                    }
                },
                "img": "",
                "name": ""
            }
        },
        "invested": {
            "value": false
        },
        "level": {
            "value": 11
        },
        "maxHp": {
            "value": 0
        },
        "negateBulk": {
            "value": "0"
        },
        "preciousMaterial": {
            "value": ""
        },
        "preciousMaterialGrade": {
            "value": ""
        },
        "price": {
            "value": "1,400 gp"
        },
        "quantity": {
            "value": 1
        },
        "rules": [],
        "size": {
            "value": "med"
        },
        "source": {
            "value": ""
        },
        "stackGroup": {
            "value": ""
        },
        "traits": {
            "custom": "",
            "rarity": {
                "value": "unique"
            },
            "usage": {
                "value": "held-in-one-hand"
            },
            "value": []
        },
        "usage": {
            "value": ""
        },
        "weight": {
            "value": "2"
        }
    },
    "effects": [],
    "flags": {},
    "img": "systems/pf2e/icons/equipment/other/ochre-fulcrum-lenses.webp",
    "name": "Ochre Fulcrum Lens",
    "type": "equipment"
}
