{
    "_id": "8htAYiRxpAmVn9uK",
    "data": {
        "baseItem": null,
        "brokenThreshold": {
            "value": 0
        },
        "bulkCapacity": {
            "value": ""
        },
        "collapsed": {
            "value": false
        },
        "containerId": {
            "value": ""
        },
        "description": {
            "value": "<p>This band of interwoven gold and copper, traced with Aklo symbols, is topped with a gleaming, luminescent opal gently bleeding wisps of shadowstuff.</p>\n<hr />\n<p><strong>Activate</strong> <span class=\"pf2-icon\">3</span> command;</p>\n<p><strong>Effect</strong> You attempt to make the ring cast an arcane @Compendium[pf2e.spells-srd.Wish]{Wish} spell. However, if the ring doesn't deem the wish to be sufficiently selfless, the wish isn't cast and the ring can't be activated for 24 hours.</p>\n<p>You are @Compendium[pf2e.conditionitems.Drained]{Drained 3}, whether or not the ring refuses the wish.</p>\n<hr />\n<p>Once the wish is cast, the Ring of Recalcitrant Wishes has no powers, though it is rumored that the wearer's death in an act of profound self-sacrifice restores the wish to the ring.</p>"
        },
        "equipped": {
            "value": false
        },
        "equippedBulk": {
            "value": ""
        },
        "hardness": {
            "value": 0
        },
        "hp": {
            "value": 0
        },
        "identification": {
            "misidentified": {},
            "status": "identified",
            "unidentified": {
                "data": {
                    "description": {
                        "value": ""
                    }
                },
                "img": "",
                "name": ""
            }
        },
        "invested": {
            "value": false
        },
        "level": {
            "value": 20
        },
        "maxHp": {
            "value": 0
        },
        "negateBulk": {
            "value": "0"
        },
        "preciousMaterial": {
            "value": ""
        },
        "preciousMaterialGrade": {
            "value": ""
        },
        "price": {
            "value": "10000 gp"
        },
        "quantity": {
            "value": 1
        },
        "rules": [],
        "size": {
            "value": "med"
        },
        "source": {
            "value": "Pathfinder #162: Ruins of the Radiant Siege"
        },
        "stackGroup": {
            "value": ""
        },
        "traits": {
            "custom": "",
            "rarity": {
                "value": "rare"
            },
            "usage": {
                "value": "worn"
            },
            "value": [
                "divination",
                "invested",
                "magical"
            ]
        },
        "usage": {
            "value": ""
        },
        "weight": {
            "value": "-"
        }
    },
    "effects": [],
    "flags": {},
    "img": "systems/pf2e/icons/equipment/worn-items/other-worn-items/ring-of-maniacal-devices.webp",
    "name": "Ring Of Recalcitrant Wishes",
    "type": "equipment"
}
