{
    "_id": "OYeYYJ4i66VtGY3O",
    "data": {
        "baseItem": null,
        "brokenThreshold": {
            "value": 0
        },
        "bulkCapacity": {
            "value": ""
        },
        "collapsed": {
            "value": false
        },
        "containerId": {
            "value": ""
        },
        "description": {
            "value": "<p>These lenses of forest-green glass are bound in rough leather stitched with crude twine.</p>\n<p>While wearing these goggles, you gain a +2 bonus to Survival checks to Sense Direction and Track.</p>\n<p>If you fail a check to Track, you can try again after 15 minutes rather than an hour.</p>\n<hr />\n<p>Automatically applied effects:</p>\n<ul>\n<li> +2 bonus to Survival checks to Sense Direction and Track</li>\n</ul>"
        },
        "equipped": {
            "value": false
        },
        "equippedBulk": {
            "value": ""
        },
        "hardness": {
            "value": 0
        },
        "hp": {
            "value": 0
        },
        "identification": {
            "misidentified": {},
            "status": "identified",
            "unidentified": {
                "data": {
                    "description": {
                        "value": ""
                    }
                },
                "img": "",
                "name": ""
            }
        },
        "invested": {
            "value": false
        },
        "level": {
            "value": 9
        },
        "maxHp": {
            "value": 0
        },
        "negateBulk": {
            "value": "0"
        },
        "preciousMaterial": {
            "value": ""
        },
        "preciousMaterialGrade": {
            "value": ""
        },
        "price": {
            "value": "660 gp"
        },
        "quantity": {
            "value": 1
        },
        "rules": [
            {
                "key": "FlatModifier",
                "label": "Tracker's Goggles (Sense Direction & Track)",
                "predicate": {
                    "any": [
                        "action:sense-direction",
                        "action:track"
                    ]
                },
                "selector": "survival",
                "type": "item",
                "value": 2
            }
        ],
        "size": {
            "value": "med"
        },
        "source": {
            "value": ""
        },
        "stackGroup": {
            "value": ""
        },
        "traits": {
            "custom": "",
            "rarity": {
                "value": "common"
            },
            "value": [
                "divination",
                "invested",
                "magical"
            ]
        },
        "usage": {
            "value": "worneyepiece"
        },
        "weight": {
            "value": "-"
        }
    },
    "effects": [],
    "flags": {},
    "img": "systems/pf2e/icons/equipment/worn-items/other-worn-items/trackers-goggles.webp",
    "name": "Tracker's Goggles (Greater)",
    "type": "equipment"
}
