{
    "_id": "Nnl5wg6smOzieTop",
    "data": {
        "actionCategory": {
            "value": "offensive"
        },
        "actionType": {
            "value": "action"
        },
        "actions": {
            "value": 1
        },
        "description": {
            "value": "<p>The vampire turns into a cloud of vapor, as the <em>@Compendium[pf2e.spells-srd.Gaseous Form]{Gaseous Form}</em> spell, or back to its normal form. The vampire loses @Compendium[pf2e.bestiary-ability-glossary-srd.Fast Healing]{Fast Healing} while in gaseous form.</p>\n<p>The vampire can remain in this form indefinitely.</p>"
        },
        "requirements": {
            "value": ""
        },
        "rules": [],
        "source": {
            "value": "Pathfinder Bestiary"
        },
        "traits": {
            "custom": "",
            "rarity": {
                "value": "common"
            },
            "value": [
                "concentrate",
                "divine",
                "transmutation"
            ]
        },
        "trigger": {
            "value": ""
        },
        "weapon": {
            "value": ""
        }
    },
    "effects": [],
    "flags": {},
    "img": "systems/pf2e/icons/actions/OneAction.webp",
    "name": "(Vampire, True) Turn to Mist",
    "type": "action"
}
