{
    "_id": "kbUymGTjbesOKsV6",
    "data": {
        "actionCategory": {
            "value": "offensive"
        },
        "actionType": {
            "value": "action"
        },
        "actions": {
            "value": 2
        },
        "description": {
            "value": "<p>Your eidolon unleashes a primal roar or other such terrifying noise that fits your eidolon's form. Your eidolon attempts Intimidation checks to @Compendium[pf2e.actionspf2e.Demoralize]{Demoralize} each enemy that can hear the roar; these Demoralize attempts don't take any penalty for not sharing a language.</p>"
        },
        "requirements": {
            "value": ""
        },
        "rules": [],
        "source": {
            "value": ""
        },
        "traits": {
            "custom": "",
            "rarity": {
                "value": "common"
            },
            "value": [
                "auditory",
                "eidolon"
            ]
        },
        "trigger": {
            "value": ""
        },
        "weapon": {
            "value": ""
        }
    },
    "effects": [],
    "flags": {},
    "img": "systems/pf2e/icons/actions/TwoActions.webp",
    "name": "Primal Roar",
    "type": "action"
}
