{
    "_id": "39z55kowQFOUH2v0",
    "content": "<h1 class=\"title\">Droskar (The Dark Smith) [NE]</h1>\n<p class=\"title\"><span id=\"ctl00_MainContent_DetailedOutput\"><span id=\"ctl00_MainContent_DetailedOutput\">Cast out and cursed by @Compendium[pf2e.deities.Torag]{Torag}, the Dark Smith works constantly to prove his significance, cheating and enslaving others to further his goal</p>\n<p><strong>Edicts</strong> achieve goals at any cost, continually improve your abilities, establish dominance, work ceaselessly</p>\n<p><strong>Anathema</strong> fail to work toward goals or grow in skill, relax excessively or give into sloth</p>\n<p><strong>Follower Alignments</strong> LE, NE, CE</span></p>\n<p></span></p>\n<h2 class=\"title\">Devotee Benefits</h2>\n<div>\n<div><strong>Divine Ability</strong> Constitution or Intelligence</div>\n<div><strong>Divine Font</strong> harm</div>\n<div><strong>Divine Skill</strong> Crafting</div>\n<div><strong>Favored Weapon</strong> light hammer</div>\n<div><strong>Domains</strong> duty, earth, trickery, tyranny</div>\n<div><strong>Alternate Domains</strong> ambition, fire, toil</div>\n<div><strong>Cleric Spells</strong> 1st: ant haul, 3rd: haste, 6th: dominate</div>\n</div>",
    "flags": {},
    "name": "Droskar",
    "permission": {
        "default": 0
    }
}
