{
    "_id": "6O4UGWcYERDEugzk",
    "content": "<h1 class=\"title\">Fumeiyoshi (Lord of Envy) [NE]</h1>\n<p class=\"title\"><span id=\"ctl00_MainContent_DetailedOutput\"><span id=\"ctl00_MainContent_DetailedOutput\"><strong><img style=\"float: right;\" src=\"https://i.imgur.com/7DOO8X0.png\" alt=\"\" width=\"119\" height=\"119\" />Fumeiyoshi</strong> is a Tian Xia deity most often associated with the undead and graves, although he is also the patron deity of the evil oni.</p>\n<p></span><span id=\"ctl00_MainContent_DetailedOutput\"><strong>Edicts</strong> Punish those who have good fortune they don't deserve, devour the pleasures of the living, encourage resentment, make graveyards supernaturally unsafe</p>\n<p><strong>Anathema</strong> Pass by food without stealing a bite, allow honor or tradition to prevent you from taking what you want</p>\n<p><strong>Follower Alignments</strong> LE, NE, CE</span></p>\n<p></span></p>\n<h2 class=\"title\">Devotee Benefits</h2>\n<div>\n<div><strong>Divine Ability</strong> Constitution or Charisma</div>\n<div><strong>Divine Font</strong> harm</div>\n<div><strong>Divine Skill</strong> Intimidation</div>\n<div><strong>Favored Weapon</strong> naginata</div>\n<div><strong>Domains</strong> ambition, destruction, earth, undeath</div>\n<div><strong>Cleric Spells</strong> 1st: grim tendrils, 2nd: feast of ashes, 7th: possession</div>\n</div>",
    "flags": {},
    "name": "Fumeiyoshi",
    "permission": {
        "default": 0
    }
}
