{
    "_id": "KIEgpcmHYtFu1dpg",
    "content": "<h1 class=\"title\">Imot (The Symbol of Doom) [N]</h1>\n<p class=\"title\"><span id=\"ctl00_MainContent_DetailedOutput\"><span id=\"ctl00_MainContent_DetailedOutput\"><strong>Imot</strong> is an agender psychopomp usher born from the guilt and desire for hindsight felt by mortals after a tragedy. It arranges calamities to kill off cultures that overstay their welcome. Imot is compelled to hide clues to every natural disaster using symbolism and equations; these clues induce a subconscious unease in those that do not understand them, and provide insight to those that do (though they usually end up figuring them out too late). For this reason, Imot is concerned with fear (particularly of personal failures) and self-blame for inevitable disasters, and judges souls who died unavoidable deaths.</p>\n<p></span><span id=\"ctl00_MainContent_DetailedOutput\"><strong>Edicts</strong> Search for omens in the natural world, push the boundaries of mathematics, study past disasters</p>\n<p><strong>Anathema</strong> Withhold your understanding of a portent, prevent the destruction of things that cannot be saved</p>\n<p><strong>Follower Alignments</strong> LN, N, NE</span></p>\n<p></span></p>\n<h2 class=\"title\">Devotee Benefits</h2>\n<div>\n<div><strong>Divine Ability</strong> Strength or Intelligence</div>\n<div><strong>Divine Font</strong> harm or heal</div>\n<div><strong>Divine Skill</strong> Occultism</div>\n<div><strong>Favored Weapon</strong> shield boss</div>\n<div><strong>Domains</strong> death, destruction, fate, glyph</div>\n<div><strong>Cleric Spells</strong> 1st: ill omen, 2nd: paranoia, 6th: phantasmal calamity</div>\n</div>",
    "flags": {},
    "name": "Imot",
    "permission": {
        "default": 0
    }
}
