{
    "_id": "r6SFB1PzKsagDXff",
    "content": "<h1 class=\"title\">Lady Nanbyo (The Widow of Suffering) [CE]</h1>\n<p class=\"title\"><span id=\"ctl00_MainContent_DetailedOutput\"><span id=\"ctl00_MainContent_DetailedOutput\"><strong>Edicts</strong> Revel in destruction, make natural disasters worse, allow natural disasters take their due</p>\n<p><strong>Anathema</strong> Allow a natural disaster to completely destroy a community or leave a group with no survivors</p>\n<p><strong>Follower Alignments</strong> NE, CE</span></p>\n<p></span></p>\n<h2 class=\"title\">Devotee Benefits</h2>\n<div>\n<div><strong>Divine Ability</strong> Strength or Constitution</div>\n<div><strong>Divine Font</strong> harm</div>\n<div><strong>Divine Skill</strong> Nature</div>\n<div><strong>Favored Weapon</strong> warhammer</div>\n<div><strong>Domains</strong> destruction, fire, plague, water</div>\n<div><strong>Cleric Spells</strong> 1st: burning hands, 5th: control water, 6th: dragon form</div>\n</div>",
    "flags": {},
    "name": "Lady Nanbyo",
    "permission": {
        "default": 0
    }
}
