{
    "_id": "xTD0XFaguBX6QQ2L",
    "content": "<h1 class=\"title\">Selket (Mistress of the Beautiful House) [CG]</h1>\n<p class=\"title\"><span id=\"ctl00_MainContent_DetailedOutput\"><span id=\"ctl00_MainContent_DetailedOutput\"><strong>Edicts</strong> Avenge the wronged, protect the dead and the vulnerable, use poison and suffocation, heal others</p>\n<p><strong>Anathema</strong> Poison someone you didn't intend to, harm a creature as punishment for a different creature's crime, desecrate a corpse</p>\n<p><strong>Follower Alignments</strong> NG, CG, CN</span></p>\n<p></span></p>\n<h2 class=\"title\">Devotee Benefits</h2>\n<div>\n<div><strong>Divine Ability</strong> Dexterity or Wisdom</div>\n<div><strong>Divine Font</strong> heal</div>\n<div><strong>Divine Skill</strong> Medicine</div>\n<div><strong>Favored Weapon</strong> whip</div>\n<div><strong>Domains</strong> healing, magic, nature, protection</div>\n<div><strong>Cleric Spells</strong> 1st: soothe, 3rd: paralyze, 6th: purple worm sting</div>\n</div>",
    "flags": {},
    "name": "Selket",
    "permission": {
        "default": 0
    }
}
