{
    "_id": "s1PgIQ8Oi35oS2Et",
    "content": "<h1 class=\"title\">Shoanti Animism [Any]</h1>\n<p class=\"title\"><span id=\"ctl00_MainContent_DetailedOutput\"><span id=\"ctl00_MainContent_DetailedOutput\">Most Shoanti belong to one of seven quahs, or clans, each with specific lands, notable strengths, and unique spiritual perspectives. Traditionally, each Shoanti undergoes a rite of passage into adulthood, during which time their particular totem manifests, and a Shoanti's first tattoo is an homage to that totem. The quahs and their most common totems are listed below:</p>\n<p><strong>Lyrune-Quah (Moon Clan)</strong> bat, cave bear, moon, mountain lion, owl, stars</p>\n<p><strong>Shadde-Quah (Axe Clan)</strong> cliffs, eagle, sea, shark, squid, water elemental</p>\n<p><strong>Shriikirri-Quah (Hawk Clan)</strong> cloud, falcon, hawk, hippogriff, horse, wind</p>\n<p><strong>Shundar-Quah (Spire Clan)</strong> avalanche, earth elemental, mountain spire or peak, roc, spirestalker</p>\n<p><strong>Sklar-Quah (Sun Clan)</strong> aurochs, cindersnake, emberstorm, fire elemental, flames, the sun</p>\n<p><strong>Skoan-Quah (Skull Clan)</strong> ancestors, earth elemental, giant scarab beetle, vulture, will-o'-wisp, wolf</p>\n<p><strong>Tamiir-Quah (Wind Clan)</strong> air elemental, cloud, griffon, roc, storm, wind</p>\n<p>According to their own tradition, Shoanti have lived in the northwestern lands of Avistan since long before colonizers fractured the Varisians' homeland. Yet the Shoanti people still maintain their independence and traditional way of life in areas across Varisia, particularly on the Storval Plateau.</p>\n<p>Shoanti animism is rooted in a deep connection to the land. Shoanti see the earth not merely as a metaphorical parent, but as a conscious entity whose constant support is necessary for the survival of all life upon it-animal and vegetable alike. Their traditions emphasize connection and the reciprocal way in which the land provides for those who take care of it. The life force of the land serves as the source of Shoanti power and insight, rather than the otherworldly spiritual essence of the Great Beyond common to clerics. This life force is the birth of instinct and faith, and thus it sends omens to indicate future events, warning those with the wisdom to read the signs. Thus most Shoanti hold a profound reverence for natural phenomena as a manifestation of the will of the earth.</p>\n<p><strong>Edicts</strong></p>\n<p><strong>Anathema</strong></span></p>\n<p></span></p>\n<h2 class=\"title\">Devotee Benefits</h2>",
    "flags": {},
    "name": "Shoanti Animism",
    "permission": {
        "default": 0
    }
}
