{
    "_id": "BrbXGyzCeORNyJT5",
    "content": "<h1 class=\"title\">Sifkesh (The Whispered Doubt) [CE]</h1>\n<p class=\"title\"><span id=\"ctl00_MainContent_DetailedOutput\"><span id=\"ctl00_MainContent_DetailedOutput\"><strong>Edicts</strong> Spread doubt among the faithful, ruin the reputation of religions, provoke wrongdoers to suicide instead of allowing for redemption</p>\n<p><strong>Anathema</strong> Spread hope, offer forgiveness, sincerely honor or call upon another god</p>\n<p><strong>Follower Alignments</strong> NE, CE</span></p>\n<p></span></p>\n<h2 class=\"title\">Devotee Benefits</h2>\n<div>\n<div><strong>Divine Ability</strong> Wisdom or Charisma</div>\n<div><strong>Divine Font</strong> harm</div>\n<div><strong>Divine Skill</strong> Deception</div>\n<div><strong>Favored Weapon</strong> war razor</div>\n<div><strong>Domains</strong> nightmares, pain, sorrow, trickery</div>\n<div><strong>Cleric Spells</strong> 1st: ill omen, 4th: crushing despair, 5th: subconscious suggestion</div>\n</div>",
    "flags": {},
    "name": "Sifkesh",
    "permission": {
        "default": 0
    }
}
