{
    "_id": "uYpxTi4byHc5w78R",
    "content": "<h1 class=\"title\">Yuelral (The Wise) [NG]</h1>\n<p class=\"title\"><span id=\"ctl00_MainContent_DetailedOutput\"><span id=\"ctl00_MainContent_DetailedOutput\"><img style=\"float: right;\" src=\"https://i.imgur.com/7eW2J2t.png\" alt=\"\" width=\"114\" height=\"119\" /><strong>Yuelral</strong> is the elven goddess of magic. She is a patron of both divine and arcane magic, but prefers magic that deals with the natural world rather than magic that deals with metal and other artificial things. She is frequently worshiped by jewelers because of her affinity with crystals. These jewelers never cut their crystals, instead embracing their natural beauty. Yuelral is quick to embrace half elves, seeing past their mixed heritage to what lies within.</p>\n<p></span><span id=\"ctl00_MainContent_DetailedOutput\"><strong>Edicts</strong> Practice herbalism, use and enchant gems, encourage and teach magicians and jewelers, preserve elven magic and knowledge</p>\n<p><strong>Anathema</strong> Cut a gem for aesthetic purposes, defile nature, allow the irresponsible use of magic</p>\n<p><strong>Areas of Concern</strong> gems, craft, and magic</p>\n<p><strong>Follower Alignments</strong> LG, NG, CG, N</span></p>\n<p></span></p>\n<h2 class=\"title\">Devotee Benefits</h2>\n<div>\n<div><strong>Divine Ability</strong> Intelligence or Wisdom</div>\n<div><strong>Divine Font</strong> heal</div>\n<div><strong>Divine Skill</strong> Arcana</div>\n<div><strong>Favored Weapon</strong> dagger</div>\n<div><strong>Domains</strong> creation, earth, knowledge, magic</div>\n<div><strong>Cleric Spells</strong> 1st: shattering gem, 2nd: shape wood, 3rd: meld into stone, 4th: speak with plants, 5th: tree stride, 6th: tangling creepers, 7th: unfettered pack, 8th: prismatic wall, 9th: nature's enmity</div>\n</div>",
    "flags": {},
    "name": "Yuelral",
    "permission": {
        "default": 0
    }
}
