{
    "_id": "vhHKUooXX3PYqGaU",
    "data": {
        "actionCategory": {
            "value": ""
        },
        "actionType": {
            "value": "action"
        },
        "actions": {
            "value": 1
        },
        "description": {
            "value": "<p><strong>Requirements</strong> The last action you used was @Compendium[pf2e.actionspf2e.Drain Bonded Item]{Drain Bonded Item}.</p>\n<hr />\n<p>By carefully manipulating the arcane energies stored in your bonded item as you drain it, you can conserve just enough power to cast another, slightly weaker spell.</p>\n<p>If the next action you use is to Cast a Spell using the energy from Drain Bonded Item, you gain an extra use of Drain Bonded Item. You must use this extra use of Drain Bonded Item before the end of your next turn or you lose it, and you can use this additional use only to cast a spell 2 or more levels lower than the first spell cast with Drain Bonded Item.</p>"
        },
        "featType": {
            "value": "class"
        },
        "level": {
            "value": 8
        },
        "location": "",
        "prerequisites": {
            "value": [
                {
                    "value": "arcane bond"
                }
            ]
        },
        "rules": [],
        "source": {
            "value": "Pathfinder Core Rulebook"
        },
        "traits": {
            "custom": "",
            "rarity": {
                "value": "common"
            },
            "value": [
                "manipulate",
                "wizard",
                "metamagic"
            ]
        }
    },
    "effects": [],
    "flags": {},
    "img": "systems/pf2e/icons/features/feats/feats.webp",
    "name": "Bond Conservation",
    "type": "feat"
}
