{
    "_id": "VSINzKESKAw2zA20",
    "data": {
        "actionCategory": {
            "value": "defensive"
        },
        "actionType": {
            "value": "action"
        },
        "actions": {
            "value": 1
        },
        "description": {
            "value": "<p>You manipulate your exoskeleton to overlap itself. You gain a +1 circumstance bonus to AC until the start of your next turn.</p>\n<p>@Compendium[pf2e.feat-effects.Effect: Ceremony of Protection]{Effect: Ceremony of Protection}</p>"
        },
        "featType": {
            "value": "ancestry"
        },
        "level": {
            "value": 1
        },
        "location": "",
        "prerequisites": {
            "value": []
        },
        "rules": [],
        "source": {
            "value": "Pathfinder Lost Omens: The Mwangi Expanse"
        },
        "traits": {
            "custom": "",
            "rarity": {
                "value": "common"
            },
            "value": [
                "conrasu",
                "manipulate"
            ]
        }
    },
    "effects": [],
    "flags": {},
    "img": "systems/pf2e/icons/default-icons/feats.webp",
    "name": "Ceremony of Protection",
    "type": "feat"
}
