{
    "_id": "2FBZ0apnmZ7b61ct",
    "data": {
        "actionCategory": {
            "value": ""
        },
        "actionType": {
            "value": "passive"
        },
        "actions": {
            "value": null
        },
        "description": {
            "value": "<p>Your daily preparations are particularly efficient and plentiful. When using your infused reagents to create alchemical items during your daily preparations, you make a batch of three of a given item instead of a batch of two, or a batch of four if your field normally lets you create three of that item.</p>"
        },
        "featType": {
            "value": "class"
        },
        "level": {
            "value": 20
        },
        "prerequisites": {
            "value": []
        },
        "rules": [],
        "source": {
            "value": "Pathfinder #150: Broken Promises"
        },
        "traits": {
            "custom": "",
            "rarity": {
                "value": "uncommon"
            },
            "value": [
                "alchemist"
            ]
        }
    },
    "effects": [],
    "flags": {},
    "img": "systems/pf2e/icons/features/feats/feats.webp",
    "name": "Efficient Alchemy (Paragon)",
    "type": "feat"
}
