{
    "_id": "BU4NBIBkVZxdWLLH",
    "data": {
        "actionCategory": {
            "value": ""
        },
        "actionType": {
            "value": "passive"
        },
        "actions": {
            "value": null
        },
        "description": {
            "value": "<p>You call upon the power of the elements, infusing your ki with elemental energy and allowing your attacks to deal energy damage.</p>\n<p>When you cast @Compendium[pf2e.spells-srd.Ki Strike]{Ki Strike}, in addition to the damage types normally available, you can deliver the extra damage in the form of a gust of storm-tossed wind (dealing electricity damage and gaining the air trait), a chunk of stone (dealing bludgeoning damage and gaining the earth trait), a flickering flame (dealing fire damage), or a crashing wave of frigid water (dealing cold damage and gaining the water trait).</p>\n<p>@Compendium[pf2e.spell-effects.Spell Effect: Ki Strike (Air)]{Spell Effect: Ki Strike (Air)}</p>\n<p>@Compendium[pf2e.spell-effects.Spell Effect: Ki Strike (Earth)]{Spell Effect: Ki Strike (Earth)}</p>\n<p>@Compendium[pf2e.spell-effects.Spell Effect: Ki Strike (Fire)]{Spell Effect: Ki Strike (Fire)}</p>\n<p>@Compendium[pf2e.spell-effects.Spell Effect: Ki Strike (Water)]{Spell Effect: Ki Strike (Water)}</p>"
        },
        "featType": {
            "value": "class"
        },
        "level": {
            "value": 2
        },
        "location": "",
        "prerequisites": {
            "value": [
                {
                    "value": "Ki Strike"
                }
            ]
        },
        "rules": [],
        "source": {
            "value": "Pathfinder Core Rulebook"
        },
        "traits": {
            "custom": "",
            "rarity": {
                "value": "common"
            },
            "value": [
                "monk"
            ]
        }
    },
    "effects": [],
    "flags": {},
    "img": "systems/pf2e/icons/features/feats/feats.webp",
    "name": "Elemental Fist",
    "type": "feat"
}
