{
    "_id": "iS4Vc2zv7vgL5mnX",
    "data": {
        "actionCategory": {
            "value": ""
        },
        "actionType": {
            "value": "action"
        },
        "actions": {
            "value": 1
        },
        "description": {
            "value": "<p>When you cast energy spells, you retain some of that energy as a protective barrier.</p>\n<p>If your next action is to @Compendium[pf2e.actionspf2e.Cast a Spell]{Cast a Spell} that deals energy damage, whether or not it successfully deals damage, you gain resistance to that type of energy equal to the spell's level (minimum 1) until the end of your next turn.</p>\n<p>If the spell deals more than one type of energy damage, choose one and gain resistance to that type.</p>"
        },
        "featType": {
            "value": "class"
        },
        "level": {
            "value": 2
        },
        "prerequisites": {
            "value": []
        },
        "rules": [],
        "source": {
            "value": "Pathfinder Advanced Player's Guide"
        },
        "traits": {
            "custom": "",
            "rarity": {
                "value": "common"
            },
            "value": [
                "metamagic",
                "wizard"
            ]
        }
    },
    "effects": [],
    "flags": {},
    "img": "systems/pf2e/icons/features/feats/feats.webp",
    "name": "Energy Ablation",
    "type": "feat"
}
