{
    "_id": "WPz97m5FNlbLIQ6p",
    "data": {
        "actionCategory": {
            "value": ""
        },
        "actionType": {
            "value": "action"
        },
        "actions": {
            "value": 1
        },
        "description": {
            "value": "<p>@Compendium[pf2e.feats-srd.Long-Nosed Form]{Long-Nosed Form}</p>\n<p>You can transform into a specific, curious-looking human form. This human form is the same age and body type as your tengu form and has roughly analogous physical traits, such as height, though your nose remains as long as your beak and your complexion has red undertones, no matter the skin color of your human form.</p>\n<p>Using Long-Nosed Form counts as creating a disguise for the @Compendium[pf2e.actionspf2e.Impersonate]{Impersonate} use of Deception. Due to your imperfect transformation, your transformation doesn't automatically defeat Perception DCs to determine whether you are human, though you may be able to explain away or hide your tengu traits.</p>\n<p>You lose your beak unarmed Strike in your human form, as well as any other unarmed Strikes you gained from a tengu heritage or ancestry feat. You can remain in your human form indefinitely, and you can shift back to your tengu form by using this action again.</p>"
        },
        "featType": {
            "value": "ancestry"
        },
        "level": {
            "value": 5
        },
        "prerequisites": {
            "value": []
        },
        "rules": [],
        "source": {
            "value": "Pathfinder Advanced Player's Guide"
        },
        "traits": {
            "custom": "",
            "rarity": {
                "value": "common"
            },
            "value": [
                "concentrate",
                "polymorph",
                "primal",
                "tengu",
                "transmutation"
            ]
        }
    },
    "effects": [],
    "flags": {},
    "img": "systems/pf2e/icons/features/feats/feats.webp",
    "name": "Long-Nosed Form",
    "type": "feat"
}
