{
    "_id": "URtcR1BU2OgfKHfm",
    "data": {
        "actionCategory": {
            "value": "defensive"
        },
        "actionType": {
            "value": "reaction"
        },
        "actions": {
            "value": null
        },
        "description": {
            "value": "<p><strong>Trigger</strong> You take damage from a foe's spell or magical ability with the air, earth, fire, or water trait.</p>\n<hr />\n<p>You rapidly metabolize the elemental particles in your opponent's spell to gain a boost of energy. You gain the @Compendium[pf2e.conditionitems.Quickened]{Quickened} condition until the end of your next turn. You can use the extra action only to Step or Stride.</p>"
        },
        "featType": {
            "value": "archetype"
        },
        "level": {
            "value": 8
        },
        "location": "",
        "prerequisites": {
            "value": [
                {
                    "value": "Elementalist Dedication"
                }
            ]
        },
        "rules": [],
        "source": {
            "value": ""
        },
        "traits": {
            "custom": "",
            "rarity": {
                "value": "common"
            },
            "value": [
                "archetype"
            ]
        }
    },
    "effects": [],
    "flags": {},
    "img": "systems/pf2e/icons/default-icons/feat.svg",
    "name": "Metabolize Element",
    "type": "feat"
}
