{
    "_id": "DuGA57MDiwEKp7Y1",
    "data": {
        "actionCategory": {
            "value": ""
        },
        "actionType": {
            "value": "passive"
        },
        "actions": {
            "value": null
        },
        "description": {
            "value": "<p><strong>Major Curse</strong>: Sarenrae restricts your ability to harm others.</p>\n<p>All attacks you make, spells you cast, and other sources of damage you deal are nonlethal except against fiends and undead, and you can't ever make them lethal.</p>\n<p>You deal minimum damage except against fiends and undead.</p>\n<p>All creatures except fiends and undead gain a +4 status bonus to their AC and saving throws against your attacks and other effects.</p>"
        },
        "featType": {
            "value": "curse"
        },
        "level": {
            "value": 0
        },
        "prerequisites": {
            "value": []
        },
        "rules": [],
        "source": {
            "value": ""
        },
        "traits": {
            "custom": "",
            "rarity": {
                "value": "common"
            },
            "selected": {},
            "value": []
        }
    },
    "effects": [],
    "flags": {},
    "img": "systems/pf2e/icons/deity/Sarenrae.webp",
    "name": "Sarenrae - Major Curse",
    "type": "feat"
}
