{
    "_id": "vCNtX2LwlemhA3tu",
    "data": {
        "actionCategory": {
            "value": ""
        },
        "actionType": {
            "value": "passive"
        },
        "actions": {
            "value": null
        },
        "description": {
            "value": "<p>The fury of a wild predator fills you when you Rage, granting you ferocious unarmed attacks. Cultures that revere vicious animals (such as apes or bears) give rise to barbarians with this instinct. You might also be at war with an uncontrollable, animalistic side of your personality, or you might be a descendant of a werewolf or another werecreature. Select an animal from Table 3–3: Animal Instincts that best matches your chosen animal.</p>\n<h2>Table 3-3: Animal Instincts</h2>\n<table style=\"height: 221px;\" border=\"1\">\n<tbody>\n<tr style=\"height: 17px;\">\n<td style=\"height: 17px; width: 64px;\"><strong>Animal</strong></td>\n<td style=\"height: 17px; width: 60px;\"><strong>Attack</strong></td>\n<td style=\"height: 17px; width: 74px;\"><strong>Damage</strong></td>\n<td style=\"height: 17px; width: 157px;\"><strong>Traits</strong></td>\n</tr>\n<tr style=\"height: 17px;\">\n<td style=\"height: 17px; width: 64px;\">Ape</td>\n<td style=\"height: 17px; width: 60px;\">Fist</td>\n<td style=\"height: 17px; width: 74px;\">1d10 B</td>\n<td style=\"height: 17px; width: 157px;\">Grapple, unarmed</td>\n</tr>\n<tr style=\"height: 17px;\">\n<td style=\"height: 17px; width: 64px;\" rowspan=\"2\">Bear</td>\n<td style=\"height: 17px; width: 60px;\">Jaws</td>\n<td style=\"height: 17px; width: 74px;\">1d10 P</td>\n<td style=\"height: 17px; width: 157px;\">Unarmed</td>\n</tr>\n<tr style=\"height: 17px;\">\n<td style=\"height: 17px; width: 60px;\">Claw</td>\n<td style=\"height: 17px; width: 74px;\">1d6 S</td>\n<td style=\"height: 17px; width: 157px;\">Agile, unarmed</td>\n</tr>\n<tr style=\"height: 17px;\">\n<td style=\"height: 17px; width: 64px;\">Bull</td>\n<td style=\"height: 17px; width: 60px;\">Horn</td>\n<td style=\"height: 17px; width: 74px;\">1d10 P</td>\n<td style=\"height: 17px; width: 157px;\">Shove, unarmed</td>\n</tr>\n<tr style=\"height: 17px;\">\n<td style=\"height: 17px; width: 64px;\" rowspan=\"2\">Cat</td>\n<td style=\"height: 17px; width: 60px;\">Jaws</td>\n<td style=\"height: 17px; width: 74px;\">1d10 P</td>\n<td style=\"height: 17px; width: 157px;\">Unarmed</td>\n</tr>\n<tr style=\"height: 17px;\">\n<td style=\"height: 17px; width: 60px;\">Claw</td>\n<td style=\"height: 17px; width: 74px;\">1d6 S</td>\n<td style=\"height: 17px; width: 157px;\">Agile, unarmed</td>\n</tr>\n<tr style=\"height: 17px;\">\n<td style=\"height: 17px; width: 64px;\">Deer</td>\n<td style=\"height: 17px; width: 60px;\">Antler</td>\n<td style=\"height: 17px; width: 74px;\">1d10 P</td>\n<td style=\"height: 17px; width: 157px;\">Grapple, unarmed</td>\n</tr>\n<tr style=\"height: 17px;\">\n<td style=\"height: 17px; width: 64px;\" rowspan=\"2\">Frog</td>\n<td style=\"height: 17px; width: 60px;\">Jaws</td>\n<td style=\"height: 17px; width: 74px;\">1d10 B</td>\n<td style=\"height: 17px; width: 157px;\">Unarmed</td>\n</tr>\n<tr style=\"height: 17px;\">\n<td style=\"height: 17px; width: 60px;\">Tongue</td>\n<td style=\"height: 17px; width: 74px;\">1d4 B</td>\n<td style=\"height: 17px; width: 157px;\">Agile, unarmed</td>\n</tr>\n<tr style=\"height: 17px;\">\n<td style=\"height: 17px; width: 64px;\">Shark</td>\n<td style=\"height: 17px; width: 60px;\">Jaws</td>\n<td style=\"height: 17px; width: 74px;\">1d10 P</td>\n<td style=\"height: 17px; width: 157px;\">Grapple, unarmed</td>\n</tr>\n<tr style=\"height: 17px;\">\n<td style=\"height: 17px; width: 64px;\">Snake</td>\n<td style=\"height: 17px; width: 60px;\">Fangs</td>\n<td style=\"height: 17px; width: 74px;\">1d10 P</td>\n<td style=\"height: 17px; width: 157px;\">Grapple, unarmed</td>\n</tr>\n<tr style=\"height: 17px;\">\n<td style=\"height: 17px; width: 64px;\">Wolf</td>\n<td style=\"height: 17px; width: 60px;\">Jaws</td>\n<td style=\"height: 17px; width: 74px;\">1d10 P</td>\n<td style=\"height: 17px; width: 157px;\">Trip, unarmed</td>\n</tr>\n</tbody>\n</table>\n<h2 class=\"title\">Anathema</h2>\n<p>Flagrantly disrespecting an animal of your chosen kind is anathema to your instinct, as is using weapons while raging.</p>\n<h2 class=\"title\">Bestial Rage (Instinct Ability)</h2>\n<p>When you Rage, you gain your chosen animal's unarmed attack (or attacks). The specific attack gained, the damage it deals, and its traits are listed on Table 3–3: Animal Instincts. These attacks are in the brawling group. Your Rage action gains the morph, primal, and transmutation traits.</p>\n<h2 class=\"title\">Specialization Ability</h2>\n<p>Increase the damage die size for the unarmed attacks granted by your chosen animal by one step, and increase the additional damage from Rage from 2 to 5 for your chosen animal's unarmed attacks. The frog's tongue attack and deer's antler attack gain reach 10 feet. If you have greater weapon specialization, increase the damage from Rage from 5 to 12 for your chosen animal's unarmed attacks.</p>\n<h2 class=\"title\">Raging Resistance</h2>\n<p>You resist piercing and slashing damage.</p>"
        },
        "featType": {
            "value": "classfeature"
        },
        "identified": {
            "value": true
        },
        "level": {
            "value": 1
        },
        "location": "",
        "prerequisites": {
            "value": []
        },
        "rules": [
            {
                "key": "FlatModifier",
                "label": "Rage",
                "predicate": {
                    "all": [
                        "rage"
                    ],
                    "not": [
                        "barbarian-dedication"
                    ]
                },
                "roll-options": [
                    "ac",
                    "all"
                ],
                "selector": "ac",
                "value": -1
            },
            {
                "key": "FlatModifier",
                "label": "Rage",
                "name": "rage",
                "predicate": {
                    "all": [
                        "rage",
                        "animal-instinct"
                    ],
                    "not": [
                        "agile",
                        "ranged",
                        "barbarian-dedication"
                    ]
                },
                "selector": "damage",
                "value": {
                    "brackets": [
                        {
                            "end": 6,
                            "value": 2
                        },
                        {
                            "end": 14,
                            "start": 7,
                            "value": 5
                        },
                        {
                            "start": 15,
                            "value": 12
                        }
                    ]
                }
            },
            {
                "key": "FlatModifier",
                "label": "Rage",
                "name": "rage-agile",
                "predicate": {
                    "all": [
                        "rage",
                        "agile",
                        "animal-instinct"
                    ],
                    "not": [
                        "ranged",
                        "barbarian-dedication"
                    ]
                },
                "selector": "damage",
                "value": {
                    "brackets": [
                        {
                            "end": 6,
                            "value": 1
                        },
                        {
                            "end": 14,
                            "start": 7,
                            "value": 2
                        },
                        {
                            "start": 15,
                            "value": 6
                        }
                    ]
                }
            },
            {
                "category": "unarmed",
                "damage": {
                    "base": {
                        "damageType": "piercing",
                        "dice": 1,
                        "die": "d10"
                    }
                },
                "group": "brawling",
                "key": "Strike",
                "label": "Cat Jaws",
                "options": [
                    "animal-instinct"
                ],
                "range": "melee",
                "traits": [
                    "unarmed"
                ]
            },
            {
                "category": "unarmed",
                "damage": {
                    "base": {
                        "damageType": "slashing",
                        "dice": 1,
                        "die": "d6"
                    }
                },
                "group": "brawling",
                "key": "Strike",
                "label": "Cat Claw",
                "options": [
                    "animal-instinct"
                ],
                "range": "melee",
                "traits": [
                    "agile",
                    "unarmed"
                ]
            },
            {
                "key": "DamageDice",
                "predicate": {
                    "not": [
                        "barbarian-dedication"
                    ]
                },
                "selector": "cat-jaws-damage",
                "value": {
                    "brackets": [
                        {
                            "start": 7,
                            "value": {
                                "override": {
                                    "dieSize": "d12"
                                }
                            }
                        }
                    ]
                }
            },
            {
                "key": "DamageDice",
                "predicate": {
                    "not": [
                        "barbarian-dedication"
                    ]
                },
                "selector": "cat-claw-damage",
                "value": {
                    "brackets": [
                        {
                            "start": 7,
                            "value": {
                                "override": {
                                    "dieSize": "d8"
                                }
                            }
                        }
                    ]
                }
            },
            {
                "key": "FlatModifier",
                "label": "Rage",
                "name": "dedication-instinct-rage",
                "predicate": {
                    "all": [
                        "rage",
                        "barbarian-dedication",
                        "instinct-ability"
                    ],
                    "not": [
                        "agile",
                        "ranged"
                    ]
                },
                "selector": "damage",
                "value": 2
            },
            {
                "key": "FlatModifier",
                "label": "Rage",
                "name": "dedication-instinct-rage-agile",
                "predicate": {
                    "all": [
                        "rage",
                        "barbarian-dedication",
                        "instinct-ability",
                        "agile"
                    ],
                    "not": [
                        "ranged"
                    ]
                },
                "selector": "damage",
                "value": 1
            },
            {
                "key": "FlatModifier",
                "label": "Rage",
                "name": "non-animal-rage",
                "predicate": {
                    "all": [
                        "rage"
                    ],
                    "not": [
                        "agile",
                        "ranged",
                        "animal-instinct",
                        "barbarian-dedication"
                    ]
                },
                "selector": "damage",
                "value": 2
            },
            {
                "key": "FlatModifier",
                "label": "Rage",
                "name": "non-animal-rage-agile",
                "predicate": {
                    "all": [
                        "rage",
                        "agile"
                    ],
                    "not": [
                        "ranged",
                        "animal-instinct",
                        "barbarian-dedication"
                    ]
                },
                "selector": "damage",
                "value": 1
            }
        ],
        "source": {
            "value": ""
        },
        "traits": {
            "custom": "",
            "rarity": {
                "value": "common"
            },
            "value": [
                "barbarian"
            ]
        }
    },
    "effects": [],
    "flags": {},
    "img": "systems/pf2e/icons/features/classes/animal-instinct.webp",
    "name": "Cat Animal Instinct",
    "type": "feat"
}
