{
    "_id": "8YIA0jh64Ecz0TG6",
    "data": {
        "actionCategory": {
            "value": ""
        },
        "actionType": {
            "value": "passive"
        },
        "actions": {
            "value": null
        },
        "description": {
            "value": "<p>You always take what pleases you, no matter who it hurts, and you spread the influence of evil across all you touch. You gain the @Compendium[pf2e.actionspf2e.Selfish Shield]{Selfish Shield} champion's reaction and the @Compendium[pf2e.spells-srd.Touch of Corruption]{Touch of Corruption} devotion spell. After the tenets of evil, add this tenet.</p>\n<ul>\n<li>Subvert or corrupt everything in your path that is pure and good, and sow doubt among those upholding such ideals.</li>\n</ul>\n<h2 class=\"title\">Champion's Reaction</h2>\n<h3 class=\"title\"><span style=\"color: var(--body); font-size: 14px;\">@Compendium[pf2e.actionspf2e.Selfish Shield]{Selfish Shield} <span class=\"pf2-icon\">R</span></span></h3>\n<p><strong>Trigger</strong> An enemy within 15 feet damages you</p>\n<hr />\n<p>Your self-interest keeps you safe. You gain resistance against the triggering damage equal to 2 + half your level, regardless of damage type.</p>\n<p>In addition, your Strikes against the triggering creature deal 1 extra damage until the end of your next turn. You choose whether this extra damage is evil or negative each time you use this reaction. This extra damage increases to 2 at 9th level and 3 at 16th level.</p>\n<h2 class=\"title\">Divine Smite<span style=\"float: right;\">Level 9</span></h2>\n<p>If your Charisma modifier is +2 or greater, your resistance against the triggering damage equals your Charisma modifier + half your level</p>\n<h2 class=\"title\">Exalt<span style=\"float: right;\">Level 11</span></h2>\n<p>When you use Selfish Shield, each enemy within 15 feet of you takes a -1 status penalty to attack rolls against you until the start of your next turn.</p>"
        },
        "featType": {
            "value": "classfeature"
        },
        "level": {
            "value": 1
        },
        "location": "",
        "prerequisites": {
            "value": []
        },
        "rules": [
            {
                "key": "ToggleProperty",
                "label": "Target triggered your champion reaction (negative damage)",
                "property": "flags.pf2e.rollOptions.damage-roll.selfish-shield-negative"
            },
            {
                "key": "ToggleProperty",
                "label": "Target triggered your champion reaction (evil damage)",
                "property": "flags.pf2e.rollOptions.damage-roll.selfish-shield-evil"
            },
            {
                "damageType": "negative",
                "key": "FlatModifier",
                "label": "Selfish Shield",
                "predicate": {
                    "all": [
                        "selfish-shield-negative"
                    ]
                },
                "selector": "damage",
                "value": {
                    "brackets": [
                        {
                            "end": 8,
                            "value": 1
                        },
                        {
                            "end": 15,
                            "start": 9,
                            "value": 2
                        },
                        {
                            "start": 16,
                            "value": 3
                        }
                    ]
                }
            },
            {
                "damageType": "evil",
                "key": "FlatModifier",
                "label": "Selfish Shield",
                "predicate": {
                    "all": [
                        "selfish-shield-evil"
                    ]
                },
                "selector": "damage",
                "value": {
                    "brackets": [
                        {
                            "end": 8,
                            "value": 1
                        },
                        {
                            "end": 15,
                            "start": 9,
                            "value": 2
                        },
                        {
                            "start": 16,
                            "value": 3
                        }
                    ]
                }
            }
        ],
        "source": {
            "value": ""
        },
        "traits": {
            "custom": "",
            "rarity": {
                "value": "common"
            },
            "value": [
                "champion"
            ]
        }
    },
    "effects": [],
    "flags": {},
    "img": "systems/pf2e/icons/features/classes/desecrator.webp",
    "name": "Desecrator",
    "type": "feat"
}
