{
    "_id": "nxZYP3KGfTSkaW6J",
    "data": {
        "actionCategory": {
            "value": ""
        },
        "actionType": {
            "value": "passive"
        },
        "actions": {
            "value": null
        },
        "description": {
            "value": "<p>All champions of good alignment follow these tenets.</p>\n<ul>\n<li>You must never perform acts anathema to your deity or willingly commit an evil act, such as murder, torture, or the casting of an evil spell.</li>\n<li>You must never knowingly harm an innocent, or allow immediate harm to one through inaction when you know you could reasonably prevent it. This tenet doesn't force you to take action against possible harm to innocents at an indefinite time in the future, or to sacrifice your life to protect them. </li>\n</ul>"
        },
        "featType": {
            "value": "classfeature"
        },
        "level": {
            "value": 1
        },
        "location": "",
        "prerequisites": {
            "value": []
        },
        "rules": [],
        "source": {
            "value": ""
        },
        "traits": {
            "custom": "",
            "rarity": {
                "value": "common"
            },
            "value": [
                "champion"
            ]
        }
    },
    "effects": [],
    "flags": {},
    "img": "systems/pf2e/icons/features/classes/the-tenants-of-good.webp",
    "name": "The Tenets of Good",
    "type": "feat"
}
