{
    "_id": "AkF4yFcSCdhoULyZ",
    "data": {
        "ability": {
            "value": ""
        },
        "area": {
            "value": ""
        },
        "areasize": {
            "value": ""
        },
        "category": {
            "value": "ritual"
        },
        "components": {
            "material": false,
            "somatic": false,
            "verbal": false
        },
        "cost": {
            "value": ""
        },
        "damage": {
            "value": {}
        },
        "description": {
            "value": "<p>You attempt to reactivate a dormant gate, portal, or @Compendium[pf2e.spells-srd.Teleportation Circle]{Teleportation Circle} by infusing it with magical energies. This ritual must be successfully performed twice, once at each location the portal connects. While the teleportation circles and portals found in the Abomination Vaults require no additional cost to awaken, other portals might require rare items or specific materials as a cost for this ritual at the GM's discretion—some portals might even be so powerful that this ritual cannot awaken them at all.</p>\n<p>The DC required to successfully awaken a portal varies based on the strength and distance between its end points. For the portals found in the Abomination Vaults Adventure Path, the DC varies according to the dungeon level on which it is located. Use the DCs by Spell Level section of Table 10–5 to determine the DC for a portal, using the dungeon level in place of spell level. Thus, activating the portal on the first level of the Abomination Vaults requires a successful DC 15 check, while activating the portal on the fourth level requires a successful DC 23 check.</p>\n<hr />\n<p><strong>Critical Success</strong> You awaken the portal. If its other side is awakened, the portal can be used normally and won't deactivate naturally. If its other side is not awakened, this side remains awakened for 1 year, possibly allowing you enough time to find and awaken the connecting portal.</p>\n<p><strong>Success</strong> As critical success, but if the portal's other side is not awakened, this side remains awakened for only [[/r 1d6 #days]]{1d6 days} before it fades and falls dormant again.</p>\n<p><strong>Failure</strong> You fail to activate the portal, and magical backlash leaves you @Compendium[pf2e.conditionitems.Stupefied]{Stupefied 1} for 24 hours.</p>\n<p><strong>Critical Failure</strong> As failure, but in addition, a hostile creature is drawn through the portal and immediately attacks anyone present. The creature drawn through the portal varies, according to the portal's nature; in the Abomination Vaults, the creature conjured depends on the dungeon level where the ritual was attempted, as listed below.</p>\n<ul>\n<li><strong>First Level</strong> @Compendium[pf2e.pathfinder-bestiary-2.Vampiric Mist]{Vampiric Mist}</li>\n<li><strong>Second Level</strong> @Compendium[pf2e.abomination-vaults-bestiary.Scalathrax]{Scalathrax}</li>\n<li><strong>Third Level</strong> @Compendium[pf2e.pathfinder-bestiary.Gibbering Mouther]{Gibbering Mouther}</li>\n<li><strong>Fourth Level</strong> @Compendium[pf2e.pathfinder-bestiary.Will-o'-Wisp]{Will-o'-Wisp}</li>\n<li><strong>Fifth Level</strong> @Compendium[pf2e.pathfinder-bestiary-2.Soul Eater]{Soul Eater}</li>\n<li><strong>Sixth Level</strong> @Compendium[pf2e.abomination-vaults-bestiary.Voidglutton]{Voidglutton}</li>\n<li><strong>Seventh Level</strong> @Compendium[pf2e.pathfinder-bestiary-2.Dread Wraith]{Dread Wraith}</li>\n<li><strong>Eighth Level</strong> @Compendium[pf2e.pathfinder-bestiary.Ghost Mage]{Ghost Mage}</li>\n<li><strong>Ninth Level</strong> @Compendium[pf2e.pathfinder-bestiary-2.Gosreg]{Gosreg}</li>\n<li><strong>Tenth Level</strong> @Compendium[pf2e.pathfinder-bestiary.Shining Child]{Shining Child}</li>\n</ul>"
        },
        "duration": {
            "value": ""
        },
        "hasCounteractCheck": {
            "value": false
        },
        "level": {
            "value": 3
        },
        "location": {
            "value": "nFxWYBCWslP4OG5H"
        },
        "materials": {
            "value": ""
        },
        "prepared": {
            "value": ""
        },
        "primarycheck": {
            "value": "Arcana or Occultism (trained)"
        },
        "range": {
            "value": "10 feet"
        },
        "rules": [],
        "save": {
            "basic": "",
            "value": ""
        },
        "school": {
            "value": "conjuration"
        },
        "secondarycasters": {
            "value": "up to 5"
        },
        "secondarycheck": {
            "value": "Whichever is used for the primary check"
        },
        "source": {
            "value": "Pathfinder Secrets of Magic"
        },
        "spellType": {
            "value": "utility"
        },
        "sustained": {
            "value": false
        },
        "target": {
            "value": "1 portal"
        },
        "time": {
            "value": "1 hour"
        },
        "traditions": {
            "custom": "",
            "value": []
        },
        "traits": {
            "custom": "",
            "rarity": {
                "value": "rare"
            },
            "selected": [],
            "value": []
        }
    },
    "effects": [],
    "flags": {},
    "img": "systems/pf2e/icons/spells/awaken-portal.webp",
    "name": "Awaken Portal",
    "type": "spell"
}
