{
    "_id": "AiWtiVmyasyL42J8",
    "data": {
        "ability": {
            "value": ""
        },
        "area": {
            "areaType": "",
            "value": ""
        },
        "autoHeightenLevel": {
            "value": null
        },
        "category": {
            "value": "focus"
        },
        "components": {
            "focus": false,
            "material": false,
            "somatic": true,
            "verbal": true
        },
        "cost": {
            "value": ""
        },
        "damage": {
            "value": {
                "0": {
                    "type": {
                        "categories": [],
                        "value": "bludgeoning"
                    },
                    "value": "2d6"
                }
            }
        },
        "description": {
            "value": "<p>You tear open the ground then slam it shut. The target creature takes 2d6 bludgeoning damage with a Reflex save.</p>\n<hr />\n<p><strong>Critical Success</strong> The target is unaffected.</p>\n<p><strong>Success</strong> The target takes half damage.</p>\n<p><strong>Failure</strong> The target takes full damage, is @Compendium[pf2e.conditionitems.Flat-Footed]{Flat-Footed}, and takes a -10-foot circumstance penalty to Speed.</p>\n<p><strong>Critical Failure</strong> The target takes double damage and is flat-footed and @Compendium[pf2e.conditionitems.Immobilized]{Immobilized}. It can attempt to Escape against your spell DC. If it doesn't Escape, the target takes an additional 2d6 bludgeoning damage when the spell ends.</p>\n<hr />\n<p><strong>Heightened (+1)</strong> Increase the initial damage and additional damage by 2d6.</p>"
        },
        "duration": {
            "value": "1 round"
        },
        "hasCounteractCheck": {
            "value": false
        },
        "level": {
            "value": 1
        },
        "location": {
            "value": ""
        },
        "materials": {
            "value": ""
        },
        "prepared": {
            "value": ""
        },
        "range": {
            "value": "60 feet"
        },
        "rules": [],
        "save": {
            "basic": "",
            "value": "reflex"
        },
        "scaling": {
            "damage": {
                "0": "2d6"
            },
            "interval": 1
        },
        "school": {
            "value": "transmutation"
        },
        "source": {
            "value": "Pathfinder Secrets of Magic"
        },
        "spellType": {
            "value": "save"
        },
        "sustained": {
            "value": false
        },
        "target": {
            "value": "1 creature"
        },
        "time": {
            "value": "2"
        },
        "traditions": {
            "value": []
        },
        "traits": {
            "custom": "",
            "rarity": {
                "value": "uncommon"
            },
            "value": [
                "earth"
            ]
        }
    },
    "effects": [],
    "flags": {},
    "img": "systems/pf2e/icons/default-icons/spell.svg",
    "name": "Crushing Ground",
    "type": "spell"
}
