{
    "_id": "vtCCVe869shMCJMj",
    "data": {
        "ability": {
            "value": ""
        },
        "area": {
            "areaType": "",
            "value": ""
        },
        "autoHeightenLevel": {
            "value": null
        },
        "category": {
            "value": "spell"
        },
        "components": {
            "focus": false,
            "material": false,
            "somatic": true,
            "verbal": true
        },
        "cost": {
            "value": ""
        },
        "damage": {
            "value": {}
        },
        "description": {
            "value": "<p>You channel magical energy into the target weapon, and the air around it faintly hums each time you strike a blow, as the impact is absorbed into the weapon. If a creature is wielding the weapon at the end of its turn, the weapon discharges a burst of sound targeting one creature adjacent to the wielder (if any). The sonic damage this deals is equal to the number of successful Strikes with the target weapon that the wielder made that turn (to a maximum of 4 sonic damage if the wielder hits with four Strikes).</p>\n<hr />\n<p><strong>Heightened (+2)</strong> The sonic damage increases by 1 per Strike (and the maximum damage increases by 4).</p>"
        },
        "duration": {
            "value": "1 minute"
        },
        "hasCounteractCheck": {
            "value": false
        },
        "level": {
            "value": 1
        },
        "location": {
            "value": ""
        },
        "materials": {
            "value": ""
        },
        "range": {
            "value": "touch"
        },
        "rules": [],
        "save": {
            "basic": "",
            "value": ""
        },
        "school": {
            "value": "evocation"
        },
        "source": {
            "value": "Pathfinder Secrets of Magic"
        },
        "spellType": {
            "value": "utility"
        },
        "sustained": {
            "value": false
        },
        "target": {
            "value": "1 weapon"
        },
        "time": {
            "value": "2"
        },
        "traditions": {
            "custom": "",
            "value": [
                "arcane",
                "divine",
                "occult"
            ]
        },
        "traits": {
            "custom": "",
            "rarity": {
                "value": "common"
            },
            "value": [
                "sonic"
            ]
        }
    },
    "effects": [],
    "flags": {},
    "img": "systems/pf2e/icons/spells/echoing-weapon.webp",
    "name": "Echoing Weapon",
    "type": "spell"
}
