{
    "_id": "9GkOWDFDEMuV3hJr",
    "data": {
        "ability": {
            "value": ""
        },
        "area": {
            "value": ""
        },
        "areasize": {
            "value": ""
        },
        "category": {
            "value": "spell"
        },
        "components": {
            "material": true,
            "somatic": true,
            "verbal": false
        },
        "cost": {
            "value": ""
        },
        "damage": {
            "value": {}
        },
        "description": {
            "value": "<p>The target becomes a scrying sensor, allowing you to see through its eyes, smell what it smells, and similarly use its other senses. If you can cast a spell with the revelation trait that affects your senses, such as @Compendium[pf2e.spells-srd.See Invisibility]{See Invisibility}, while this spell is active, you gain the benefit of the spell through the target's senses instead of your own. You can also speak through the target, with a voice much like yours, though it takes on some of the timbre and character of the target's growls or squawks. You can use @Compendium[pf2e.actionspf2e.Command an Animal]{Command an Animal} on the target as part of @Compendium[pf2e.actionspf2e.Sustain a Spell]{Sustaining this Spell}. You don't need line of sight or line of effect to your target when you @Compendium[pf2e.actionspf2e.Cast a Spell]{Cast this Spell}.</p>"
        },
        "duration": {
            "value": "sustained"
        },
        "hasCounteractCheck": {
            "value": false
        },
        "level": {
            "value": 3
        },
        "location": {
            "value": ""
        },
        "materials": {
            "value": ""
        },
        "prepared": {
            "value": false
        },
        "primarycheck": {
            "value": ""
        },
        "range": {
            "value": "1 mile"
        },
        "rules": [],
        "save": {
            "basic": "",
            "value": ""
        },
        "school": {
            "value": "divination"
        },
        "secondarycasters": {
            "value": ""
        },
        "secondarycheck": {
            "value": ""
        },
        "source": {
            "value": "Pathfinder Advanced Player's Guide"
        },
        "spellType": {
            "value": "utility"
        },
        "sustained": {
            "value": false
        },
        "target": {
            "value": "1 willing creature that is your animal companion or familiar"
        },
        "time": {
            "value": "2"
        },
        "traditions": {
            "value": [
                "arcane",
                "divine",
                "occult",
                "primal"
            ]
        },
        "traits": {
            "custom": "",
            "rarity": {
                "value": "common"
            },
            "value": [
                "scrying"
            ]
        }
    },
    "effects": [],
    "flags": {},
    "img": "systems/pf2e/icons/spells/familiars-face.webp",
    "name": "Familiar's Face",
    "type": "spell"
}
