{
    "_id": "5tpk4Q2QI3FVhm99",
    "data": {
        "ability": {
            "value": ""
        },
        "area": {
            "areaType": "",
            "value": ""
        },
        "autoHeightenLevel": {
            "value": null
        },
        "category": {
            "value": "spell"
        },
        "components": {
            "focus": false,
            "material": true,
            "somatic": true,
            "verbal": true
        },
        "cost": {
            "value": ""
        },
        "damage": {
            "value": {}
        },
        "description": {
            "value": "<p>You anchor your location in time so that you can swiftly retrace your steps later with complex chronomancy. The space you're in when you cast the spell becomes your temporal anchor space. While you're within 500 feet of your temporal anchor space, you can spend a single action that has the concentrate trait to instantaneously return to that space (you don't need to have line of effect to the space). The spell then ends. You bring any items that are in your possession with you when you take the action to return.</p>\n<p>If the anchor space is occupied when you attempt to return to it or if this spell would bring another creature with you, the spell fails to transport you, then ends.</p>\n<hr />\n<p><strong>Heightened (7th)</strong> You can return if you're within 1,000 feet of your anchor space.</p>\n<p><strong>Heightened (9th)</strong> You can return if you're within 1 mile of your anchor space.</p>"
        },
        "duration": {
            "value": "10 minutes"
        },
        "hasCounteractCheck": {
            "value": false
        },
        "level": {
            "value": 5
        },
        "location": {
            "value": ""
        },
        "materials": {
            "value": ""
        },
        "range": {
            "value": ""
        },
        "rules": [],
        "save": {
            "basic": "",
            "value": ""
        },
        "school": {
            "value": "transmutation"
        },
        "source": {
            "value": "Pathfinder Secrets of Magic"
        },
        "spellType": {
            "value": "utility"
        },
        "sustained": {
            "value": false
        },
        "target": {
            "value": ""
        },
        "time": {
            "value": "1 minute"
        },
        "traditions": {
            "custom": "",
            "value": [
                "arcane",
                "divine",
                "occult"
            ]
        },
        "traits": {
            "custom": "",
            "rarity": {
                "value": "common"
            },
            "value": []
        }
    },
    "effects": [],
    "flags": {},
    "img": "systems/pf2e/icons/spells/rewinding-step.webp",
    "name": "Rewinding Step",
    "type": "spell"
}
