{
    "_id": "IoHxAkK0uGqrgtWl",
    "data": {
        "ability": {
            "value": ""
        },
        "area": {
            "value": ""
        },
        "areasize": {
            "value": ""
        },
        "category": {
            "value": "spell"
        },
        "components": {
            "material": false,
            "somatic": true,
            "verbal": true
        },
        "cost": {
            "value": ""
        },
        "damage": {
            "value": {
                "0": {
                    "type": {
                        "categories": [],
                        "value": "piercing"
                    },
                    "value": "3d4"
                }
            }
        },
        "description": {
            "value": "<p>You duplicate the venomous sting of a wyvern. You deal [[/r 3d4 #piercing]]{3d4 piercing damage} to the touched creature and afflict it with wyvern venom. If the target takes piercing damage, they must attempt a Fortitude save.</p>\n<hr />\n<p><strong>Critical Success</strong> The target is unaffected.</p>\n<p><strong>Success</strong> The target takes [[/r 5d6 #poison]]{5d6 poison damage}.</p>\n<p><strong>Failure</strong> The target is afflicted with Wyvern Venom at stage 1.</p>\n<p><strong>Critical Failure</strong> The target is afflicted with wyvern venom at stage 2.</p><hr /><p><strong>Wyvern Venom</strong> (poison) <strong>Level</strong> 9</p>\n<p><strong>Maximum Duration</strong> 6 rounds</p>\n<p><strong>Stage 1</strong> [[/r 5d6 #poison]]{5d6 poison damage} (1 round)</p>\n<p><strong>Stage 2</strong> [[/r 6d6 #poison]]{6d6 poison damage} (1 round)</p>\n<p><strong>Stage 3</strong> [[/r 8d6 #poison]]{8d6 poison damage} (1 round)</p>"
        },
        "duration": {
            "value": ""
        },
        "hasCounteractCheck": {
            "value": false
        },
        "level": {
            "value": 5
        },
        "location": {
            "value": "Z9TGJ4zsSKnZVV9u"
        },
        "materials": {
            "value": ""
        },
        "prepared": {
            "value": ""
        },
        "primarycheck": {
            "value": ""
        },
        "range": {
            "value": "touch"
        },
        "rules": [],
        "save": {
            "basic": "",
            "value": "fortitude"
        },
        "school": {
            "value": "necromancy"
        },
        "secondarycasters": {
            "value": ""
        },
        "secondarycheck": {
            "value": ""
        },
        "source": {
            "value": "Pathfinder #160: Assault on Hunting Lodge Seven"
        },
        "spellType": {
            "value": "save"
        },
        "sustained": {
            "value": false
        },
        "target": {
            "value": "1 creature"
        },
        "time": {
            "value": "2"
        },
        "traditions": {
            "custom": "",
            "value": [
                "arcane",
                "primal"
            ]
        },
        "traits": {
            "custom": "",
            "rarity": {
                "value": "uncommon"
            },
            "selected": [],
            "value": [
                "poison"
            ]
        }
    },
    "effects": [],
    "flags": {},
    "img": "systems/pf2e/icons/spells/wyvern-sting.webp",
    "name": "Wyvern Sting",
    "type": "spell"
}
