{
    "_id": "dJeiekfqGQ8dkwsO",
    "data": {
        "actionCategory": {
            "value": ""
        },
        "actionType": {
            "value": "passive"
        },
        "actions": {
            "value": null
        },
        "description": {
            "value": "<p>Your family is descended from the most common lizardfolk heritage, and you are accustomed to aquatic environments. You gain a 15-foot @Compendium[pf2e.actionspf2e.Swim]{Swim} Speed.</p>"
        },
        "featType": {
            "value": "heritage"
        },
        "level": {
            "value": 1
        },
        "location": "",
        "prerequisites": {
            "value": []
        },
        "rules": [
            {
                "key": "BaseSpeed",
                "selector": "swim",
                "value": 15
            }
        ],
        "source": {
            "value": ""
        },
        "traits": {
            "custom": "",
            "rarity": {
                "value": "common"
            },
            "value": [
                "lizardfolk"
            ]
        }
    },
    "effects": [],
    "flags": {},
    "img": "systems/pf2e/icons/features/ancestry/wetlander-lizardfolk.webp",
    "name": "Wetlander Lizardfolk",
    "type": "feat"
}
