{
    "_id": "84SZGVNLXhLKG6gL",
    "data": {
        "abilityBoostLevels": {
            "value": [
                5,
                10,
                15,
                20
            ]
        },
        "ancestryFeatLevels": {
            "value": [
                1,
                5,
                9,
                13,
                17
            ]
        },
        "attacks": {
            "advanced": 0,
            "martial": 0,
            "other": {
                "name": "",
                "rank": 0
            },
            "simple": 0,
            "unarmed": 0
        },
        "classDC": 0,
        "classFeatLevels": {
            "value": [
                1,
                2,
                4,
                6,
                8,
                10,
                12,
                14,
                16,
                18,
                20
            ]
        },
        "defenses": {
            "heavy": 0,
            "light": 0,
            "medium": 0,
            "unarmored": 0
        },
        "description": {
            "value": "<p>This is a blank class for homebrew. This provides no inherent automation but can be used as a drag and drop template on an actor.</p>"
        },
        "generalFeatLevels": {
            "value": [
                3,
                7,
                11,
                15,
                19
            ]
        },
        "hp": 0,
        "items": {},
        "keyAbility": {
            "value": []
        },
        "perception": 0,
        "rules": [],
        "savingThrows": {
            "fortitude": 0,
            "reflex": 0,
            "will": 0
        },
        "skillFeatLevels": {
            "value": [
                2,
                4,
                6,
                8,
                10,
                12,
                14,
                16,
                18,
                20
            ]
        },
        "skillIncreaseLevels": {
            "value": [
                3,
                5,
                7,
                9,
                11,
                13,
                15,
                17,
                19
            ]
        },
        "source": {
            "value": ""
        },
        "trainedSkills": {
            "additional": 0,
            "value": []
        },
        "traits": {
            "custom": "",
            "rarity": {
                "value": "common"
            },
            "value": []
        }
    },
    "effects": [],
    "flags": {},
    "img": "systems/pf2e/icons/classes/empty-class.webp",
    "name": "[Empty Class]",
    "type": "class"
}
