{
    "_id": "iqvurepX0zyu9OlI",
    "data": {
        "description": {
            "value": "<p>Granted when a ranger shares their @Compendium[pf2e.classfeatures.Masterful Hunter (Outwit)]{Masterful Hunter (Outwit)} with you.</p>\n<p>Your mastery of skills allows you to overwhelm your prey. If you have master proficiency in Deception, Intimidation, Stealth, or the skill you use to Recall Knowledge about your prey, increase the circumstance bonus against the prey with that skill from +2 to +4.</p>\n<p>If you have master proficiency with your armor, increase the circumstance bonus to AC against the prey from +1 to +2.</p>"
        },
        "duration": {
            "expiry": "turn-start",
            "sustained": false,
            "unit": "unlimited",
            "value": -1
        },
        "level": {
            "value": 17
        },
        "rules": [
            {
                "key": "ToggleProperty",
                "label": "Target is your Hunted Prey",
                "property": "flags.pf2e.rollOptions.all.hunted-prey"
            },
            {
                "key": "FlatModifier",
                "label": "To Track hunted prey (Masterful Hunter)",
                "predicate": {
                    "all": [
                        "action:track",
                        "hunted-prey"
                    ]
                },
                "roll-options": [
                    "all"
                ],
                "selector": "survival",
                "type": "circumstance",
                "value": {
                    "brackets": [
                        {
                            "end": 4,
                            "start": 3,
                            "value": 4
                        },
                        {
                            "end": 2,
                            "start": 1,
                            "value": 2
                        }
                    ],
                    "field": "actor|data.skills.sur.rank"
                }
            },
            {
                "key": "FlatModifier",
                "label": "To Seek hunted prey (Masterful Hunter)",
                "predicate": {
                    "all": [
                        "action:seek",
                        "hunted-prey"
                    ]
                },
                "roll-options": [
                    "all"
                ],
                "selector": "perception",
                "type": "circumstance",
                "value": {
                    "brackets": [
                        {
                            "end": 4,
                            "start": 3,
                            "value": 4
                        },
                        {
                            "end": 2,
                            "start": 1,
                            "value": 2
                        }
                    ],
                    "field": "actor|data.attributes.perception.rank"
                }
            },
            {
                "key": "FlatModifier",
                "label": "Vs. attacks from hunted prey (Masterful Hunter)",
                "predicate": {
                    "all": [
                        "hunted-prey"
                    ]
                },
                "roll-options": [
                    "all"
                ],
                "selector": "ac",
                "type": "circumstance",
                "value": {
                    "brackets": [
                        {
                            "end": 4,
                            "start": 3,
                            "value": 2
                        },
                        {
                            "end": 2,
                            "start": 1,
                            "value": 1
                        }
                    ],
                    "field": "actor|data.martial.unarmored.rank"
                }
            },
            {
                "key": "FlatModifier",
                "label": "Vs. hunted prey (Masterful Hunter)",
                "predicate": {
                    "all": [
                        "hunted-prey"
                    ]
                },
                "roll-options": [
                    "all"
                ],
                "selector": "deception",
                "type": "circumstance",
                "value": {
                    "brackets": [
                        {
                            "end": 4,
                            "start": 3,
                            "value": 4
                        },
                        {
                            "end": 2,
                            "start": 1,
                            "value": 2
                        }
                    ],
                    "field": "actor|data.skills.dec.rank"
                }
            },
            {
                "key": "FlatModifier",
                "label": "Vs. hunted prey (Masterful Hunter)",
                "predicate": {
                    "all": [
                        "hunted-prey"
                    ]
                },
                "roll-options": [
                    "all"
                ],
                "selector": "intimidation",
                "type": "circumstance",
                "value": {
                    "brackets": [
                        {
                            "end": 4,
                            "start": 3,
                            "value": 4
                        },
                        {
                            "end": 2,
                            "start": 1,
                            "value": 2
                        }
                    ],
                    "field": "actor|data.skills.itm.rank"
                }
            },
            {
                "key": "FlatModifier",
                "label": "Vs. hunted prey (Masterful Hunter)",
                "predicate": {
                    "all": [
                        "hunted-prey"
                    ]
                },
                "roll-options": [
                    "all"
                ],
                "selector": "stealth",
                "type": "circumstance",
                "value": {
                    "brackets": [
                        {
                            "end": 4,
                            "start": 3,
                            "value": 4
                        },
                        {
                            "end": 2,
                            "start": 1,
                            "value": 2
                        }
                    ],
                    "field": "actor|data.skills.ste.rank"
                }
            },
            {
                "key": "FlatModifier",
                "label": "Recall knowledge on hunted prey (Masterful Hunter)",
                "predicate": {
                    "all": [
                        "hunted-prey",
                        "action:recall-knowledge"
                    ]
                },
                "roll-options": [
                    "all"
                ],
                "selector": "arcana",
                "type": "circumstance",
                "value": {
                    "brackets": [
                        {
                            "end": 4,
                            "start": 3,
                            "value": 4
                        },
                        {
                            "end": 2,
                            "start": 1,
                            "value": 2
                        }
                    ],
                    "field": "actor|data.skills.arc.rank"
                }
            },
            {
                "key": "FlatModifier",
                "label": "Recall knowledge on hunted prey (Masterful Hunter)",
                "predicate": {
                    "all": [
                        "hunted-prey",
                        "action:recall-knowledge"
                    ]
                },
                "roll-options": [
                    "all"
                ],
                "selector": "religion",
                "type": "circumstance",
                "value": {
                    "brackets": [
                        {
                            "end": 4,
                            "start": 3,
                            "value": 4
                        },
                        {
                            "end": 2,
                            "start": 1,
                            "value": 2
                        }
                    ],
                    "field": "actor|data.skills.rel.rank"
                }
            },
            {
                "key": "FlatModifier",
                "label": "Recall knowledge on hunted prey (Masterful Hunter)",
                "predicate": {
                    "all": [
                        "hunted-prey",
                        "action:recall-knowledge"
                    ]
                },
                "roll-options": [
                    "all"
                ],
                "selector": "nature",
                "type": "circumstance",
                "value": {
                    "brackets": [
                        {
                            "end": 4,
                            "start": 3,
                            "value": 4
                        },
                        {
                            "end": 2,
                            "start": 1,
                            "value": 2
                        }
                    ],
                    "field": "actor|data.skills.nat.rank"
                }
            },
            {
                "key": "FlatModifier",
                "label": "Recall knowledge on hunted prey (Masterful Hunter)",
                "predicate": {
                    "all": [
                        "hunted-prey",
                        "action:recall-knowledge"
                    ]
                },
                "roll-options": [
                    "all"
                ],
                "selector": "occultism",
                "type": "circumstance",
                "value": {
                    "brackets": [
                        {
                            "end": 4,
                            "start": 3,
                            "value": 4
                        },
                        {
                            "end": 2,
                            "start": 1,
                            "value": 2
                        }
                    ],
                    "field": "actor|data.skills.occ.rank"
                }
            },
            {
                "key": "FlatModifier",
                "label": "Recall knowledge on hunted prey (Masterful Hunter)",
                "predicate": {
                    "all": [
                        "hunted-prey",
                        "action:recall-knowledge"
                    ]
                },
                "roll-options": [
                    "all"
                ],
                "selector": "crafting",
                "type": "circumstance",
                "value": {
                    "brackets": [
                        {
                            "end": 4,
                            "start": 3,
                            "value": 4
                        },
                        {
                            "end": 2,
                            "start": 1,
                            "value": 2
                        }
                    ],
                    "field": "actor|data.skills.cra.rank"
                }
            },
            {
                "key": "FlatModifier",
                "label": "Recall knowledge on hunted prey (Masterful Hunter)",
                "predicate": {
                    "all": [
                        "hunted-prey",
                        "action:recall-knowledge"
                    ]
                },
                "roll-options": [
                    "all"
                ],
                "selector": "society",
                "type": "circumstance",
                "value": {
                    "brackets": [
                        {
                            "end": 4,
                            "start": 3,
                            "value": 4
                        },
                        {
                            "end": 2,
                            "start": 1,
                            "value": 2
                        }
                    ],
                    "field": "actor|data.skills.soc.rank"
                }
            }
        ],
        "source": {
            "value": ""
        },
        "start": {
            "initiative": null,
            "value": 0
        },
        "target": null,
        "tokenIcon": {
            "show": true
        },
        "traits": {
            "custom": "",
            "rarity": {
                "value": "common"
            },
            "value": []
        }
    },
    "effects": [],
    "flags": {},
    "img": "systems/pf2e/icons/features/classes/outwit.webp",
    "name": "Effect: Masterful Hunter's Edge, Outwit",
    "type": "effect"
}
